[Info]
Version 1
Dimension 2
NumNodes 294
Num3DElements 0
Num2DElements 260
Num1DElements 0
NumNodeBC 74
NumSaveNodes 0
NumSaveElements 0
Num 2d-line      : 0
Num 2d-line,quad : 0
Num 3d-line      : 0
Num 3d-line,quad : 0
Num triangle     : 0
Num triangle,quad: 0
Num quadr        : 260
Num quadr,quad   : 0
Num tetra        : 0
Num tetra,quad   : 0
Num brick        : 0
Num brick,quad   : 0
Num pyramid      : 0
Num pyramid,quad : 0
Num wedge        : 0
Num wedge,quad   : 0

[Nodes]
#NodeNr x-coord y-coord z-coord
1  0.0  0.0  0.0
2  0.15  0.0  0.0
3  0.3  0.0  0.0
4  0.45  0.0  0.0
5  0.6  0.0  0.0
6  0.75  0.0  0.0
7  0.9  0.0  0.0
8  1.05  0.0  0.0
9  1.2  0.0  0.0
10  1.35  0.0  0.0
11  1.5  0.0  0.0
12  1.65  0.0  0.0
13  1.8  0.0  0.0
14  1.95  0.0  0.0
15  2.1  0.0  0.0
16  2.25  0.0  0.0
17  2.4  0.0  0.0
18  2.55  0.0  0.0
19  2.7  0.0  0.0
20  2.85  0.0  0.0
21  3.0  0.0  0.0
22  0.0  0.153846153846  0.0
23  0.15  0.153846153846  0.0
24  0.3  0.153846153846  0.0
25  0.45  0.153846153846  0.0
26  0.6  0.153846153846  0.0
27  0.75  0.153846153846  0.0
28  0.9  0.153846153846  0.0
29  1.05  0.153846153846  0.0
30  1.2  0.153846153846  0.0
31  1.35  0.153846153846  0.0
32  1.5  0.153846153846  0.0
33  1.65  0.153846153846  0.0
34  1.8  0.153846153846  0.0
35  1.95  0.153846153846  0.0
36  2.1  0.153846153846  0.0
37  2.25  0.153846153846  0.0
38  2.4  0.153846153846  0.0
39  2.55  0.153846153846  0.0
40  2.7  0.153846153846  0.0
41  2.85  0.153846153846  0.0
42  3.0  0.153846153846  0.0
43  0.0  0.307692307692  0.0
44  0.15  0.307692307692  0.0
45  0.3  0.307692307692  0.0
46  0.45  0.307692307692  0.0
47  0.6  0.307692307692  0.0
48  0.75  0.307692307692  0.0
49  0.9  0.307692307692  0.0
50  1.05  0.307692307692  0.0
51  1.2  0.307692307692  0.0
52  1.35  0.307692307692  0.0
53  1.5  0.307692307692  0.0
54  1.65  0.307692307692  0.0
55  1.8  0.307692307692  0.0
56  1.95  0.307692307692  0.0
57  2.1  0.307692307692  0.0
58  2.25  0.307692307692  0.0
59  2.4  0.307692307692  0.0
60  2.55  0.307692307692  0.0
61  2.7  0.307692307692  0.0
62  2.85  0.307692307692  0.0
63  3.0  0.307692307692  0.0
64  0.0  0.461538461538  0.0
65  0.15  0.461538461538  0.0
66  0.3  0.461538461538  0.0
67  0.45  0.461538461538  0.0
68  0.6  0.461538461538  0.0
69  0.75  0.461538461538  0.0
70  0.9  0.461538461538  0.0
71  1.05  0.461538461538  0.0
72  1.2  0.461538461538  0.0
73  1.35  0.461538461538  0.0
74  1.5  0.461538461538  0.0
75  1.65  0.461538461538  0.0
76  1.8  0.461538461538  0.0
77  1.95  0.461538461538  0.0
78  2.1  0.461538461538  0.0
79  2.25  0.461538461538  0.0
80  2.4  0.461538461538  0.0
81  2.55  0.461538461538  0.0
82  2.7  0.461538461538  0.0
83  2.85  0.461538461538  0.0
84  3.0  0.461538461538  0.0
85  0.0  0.615384615385  0.0
86  0.15  0.615384615385  0.0
87  0.3  0.615384615385  0.0
88  0.45  0.615384615385  0.0
89  0.6  0.615384615385  0.0
90  0.75  0.615384615385  0.0
91  0.9  0.615384615385  0.0
92  1.05  0.615384615385  0.0
93  1.2  0.615384615385  0.0
94  1.35  0.615384615385  0.0
95  1.5  0.615384615385  0.0
96  1.65  0.615384615385  0.0
97  1.8  0.615384615385  0.0
98  1.95  0.615384615385  0.0
99  2.1  0.615384615385  0.0
100  2.25  0.615384615385  0.0
101  2.4  0.615384615385  0.0
102  2.55  0.615384615385  0.0
103  2.7  0.615384615385  0.0
104  2.85  0.615384615385  0.0
105  3.0  0.615384615385  0.0
106  0.0  0.769230769231  0.0
107  0.15  0.769230769231  0.0
108  0.3  0.769230769231  0.0
109  0.45  0.769230769231  0.0
110  0.6  0.769230769231  0.0
111  0.75  0.769230769231  0.0
112  0.9  0.769230769231  0.0
113  1.05  0.769230769231  0.0
114  1.2  0.769230769231  0.0
115  1.35  0.769230769231  0.0
116  1.5  0.769230769231  0.0
117  1.65  0.769230769231  0.0
118  1.8  0.769230769231  0.0
119  1.95  0.769230769231  0.0
120  2.1  0.769230769231  0.0
121  2.25  0.769230769231  0.0
122  2.4  0.769230769231  0.0
123  2.55  0.769230769231  0.0
124  2.7  0.769230769231  0.0
125  2.85  0.769230769231  0.0
126  3.0  0.769230769231  0.0
127  0.0  0.923076923077  0.0
128  0.15  0.923076923077  0.0
129  0.3  0.923076923077  0.0
130  0.45  0.923076923077  0.0
131  0.6  0.923076923077  0.0
132  0.75  0.923076923077  0.0
133  0.9  0.923076923077  0.0
134  1.05  0.923076923077  0.0
135  1.2  0.923076923077  0.0
136  1.35  0.923076923077  0.0
137  1.5  0.923076923077  0.0
138  1.65  0.923076923077  0.0
139  1.8  0.923076923077  0.0
140  1.95  0.923076923077  0.0
141  2.1  0.923076923077  0.0
142  2.25  0.923076923077  0.0
143  2.4  0.923076923077  0.0
144  2.55  0.923076923077  0.0
145  2.7  0.923076923077  0.0
146  2.85  0.923076923077  0.0
147  3.0  0.923076923077  0.0
148  0.0  1.07692307692  0.0
149  0.15  1.07692307692  0.0
150  0.3  1.07692307692  0.0
151  0.45  1.07692307692  0.0
152  0.6  1.07692307692  0.0
153  0.75  1.07692307692  0.0
154  0.9  1.07692307692  0.0
155  1.05  1.07692307692  0.0
156  1.2  1.07692307692  0.0
157  1.35  1.07692307692  0.0
158  1.5  1.07692307692  0.0
159  1.65  1.07692307692  0.0
160  1.8  1.07692307692  0.0
161  1.95  1.07692307692  0.0
162  2.1  1.07692307692  0.0
163  2.25  1.07692307692  0.0
164  2.4  1.07692307692  0.0
165  2.55  1.07692307692  0.0
166  2.7  1.07692307692  0.0
167  2.85  1.07692307692  0.0
168  3.0  1.07692307692  0.0
169  0.0  1.23076923077  0.0
170  0.15  1.23076923077  0.0
171  0.3  1.23076923077  0.0
172  0.45  1.23076923077  0.0
173  0.6  1.23076923077  0.0
174  0.75  1.23076923077  0.0
175  0.9  1.23076923077  0.0
176  1.05  1.23076923077  0.0
177  1.2  1.23076923077  0.0
178  1.35  1.23076923077  0.0
179  1.5  1.23076923077  0.0
180  1.65  1.23076923077  0.0
181  1.8  1.23076923077  0.0
182  1.95  1.23076923077  0.0
183  2.1  1.23076923077  0.0
184  2.25  1.23076923077  0.0
185  2.4  1.23076923077  0.0
186  2.55  1.23076923077  0.0
187  2.7  1.23076923077  0.0
188  2.85  1.23076923077  0.0
189  3.0  1.23076923077  0.0
190  0.0  1.38461538462  0.0
191  0.15  1.38461538462  0.0
192  0.3  1.38461538462  0.0
193  0.45  1.38461538462  0.0
194  0.6  1.38461538462  0.0
195  0.75  1.38461538462  0.0
196  0.9  1.38461538462  0.0
197  1.05  1.38461538462  0.0
198  1.2  1.38461538462  0.0
199  1.35  1.38461538462  0.0
200  1.5  1.38461538462  0.0
201  1.65  1.38461538462  0.0
202  1.8  1.38461538462  0.0
203  1.95  1.38461538462  0.0
204  2.1  1.38461538462  0.0
205  2.25  1.38461538462  0.0
206  2.4  1.38461538462  0.0
207  2.55  1.38461538462  0.0
208  2.7  1.38461538462  0.0
209  2.85  1.38461538462  0.0
210  3.0  1.38461538462  0.0
211  0.0  1.53846153846  0.0
212  0.15  1.53846153846  0.0
213  0.3  1.53846153846  0.0
214  0.45  1.53846153846  0.0
215  0.6  1.53846153846  0.0
216  0.75  1.53846153846  0.0
217  0.9  1.53846153846  0.0
218  1.05  1.53846153846  0.0
219  1.2  1.53846153846  0.0
220  1.35  1.53846153846  0.0
221  1.5  1.53846153846  0.0
222  1.65  1.53846153846  0.0
223  1.8  1.53846153846  0.0
224  1.95  1.53846153846  0.0
225  2.1  1.53846153846  0.0
226  2.25  1.53846153846  0.0
227  2.4  1.53846153846  0.0
228  2.55  1.53846153846  0.0
229  2.7  1.53846153846  0.0
230  2.85  1.53846153846  0.0
231  3.0  1.53846153846  0.0
232  0.0  1.69230769231  0.0
233  0.15  1.69230769231  0.0
234  0.3  1.69230769231  0.0
235  0.45  1.69230769231  0.0
236  0.6  1.69230769231  0.0
237  0.75  1.69230769231  0.0
238  0.9  1.69230769231  0.0
239  1.05  1.69230769231  0.0
240  1.2  1.69230769231  0.0
241  1.35  1.69230769231  0.0
242  1.5  1.69230769231  0.0
243  1.65  1.69230769231  0.0
244  1.8  1.69230769231  0.0
245  1.95  1.69230769231  0.0
246  2.1  1.69230769231  0.0
247  2.25  1.69230769231  0.0
248  2.4  1.69230769231  0.0
249  2.55  1.69230769231  0.0
250  2.7  1.69230769231  0.0
251  2.85  1.69230769231  0.0
252  3.0  1.69230769231  0.0
253  0.0  1.84615384615  0.0
254  0.15  1.84615384615  0.0
255  0.3  1.84615384615  0.0
256  0.45  1.84615384615  0.0
257  0.6  1.84615384615  0.0
258  0.75  1.84615384615  0.0
259  0.9  1.84615384615  0.0
260  1.05  1.84615384615  0.0
261  1.2  1.84615384615  0.0
262  1.35  1.84615384615  0.0
263  1.5  1.84615384615  0.0
264  1.65  1.84615384615  0.0
265  1.8  1.84615384615  0.0
266  1.95  1.84615384615  0.0
267  2.1  1.84615384615  0.0
268  2.25  1.84615384615  0.0
269  2.4  1.84615384615  0.0
270  2.55  1.84615384615  0.0
271  2.7  1.84615384615  0.0
272  2.85  1.84615384615  0.0
273  3.0  1.84615384615  0.0
274  0.0  2.0  0.0
275  0.15  2.0  0.0
276  0.3  2.0  0.0
277  0.45  2.0  0.0
278  0.6  2.0  0.0
279  0.75  2.0  0.0
280  0.9  2.0  0.0
281  1.05  2.0  0.0
282  1.2  2.0  0.0
283  1.35  2.0  0.0
284  1.5  2.0  0.0
285  1.65  2.0  0.0
286  1.8  2.0  0.0
287  1.95  2.0  0.0
288  2.1  2.0  0.0
289  2.25  2.0  0.0
290  2.4  2.0  0.0
291  2.55  2.0  0.0
292  2.7  2.0  0.0
293  2.85  2.0  0.0
294  3.0  2.0  0.0

[1D Elements]
#ElemNr  ElemType  NrOfNodes  Level
#Node1 Node2 ... NodeNrOfNodes

[2D Elements]
#ElemNr  ElemType  NrOfNodes  Level
#Node1 Node2 ... NodeNrOfNodes
1 6 4 mech
1 2 23 22
2 6 4 mech
2 3 24 23
3 6 4 mech
3 4 25 24
4 6 4 mech
4 5 26 25
5 6 4 mech
5 6 27 26
6 6 4 mech
6 7 28 27
7 6 4 mech
7 8 29 28
8 6 4 mech
8 9 30 29
9 6 4 mech
9 10 31 30
10 6 4 mech
10 11 32 31
11 6 4 mech
11 12 33 32
12 6 4 mech
12 13 34 33
13 6 4 mech
13 14 35 34
14 6 4 mech
14 15 36 35
15 6 4 mech
15 16 37 36
16 6 4 mech
16 17 38 37
17 6 4 mech
17 18 39 38
18 6 4 mech
18 19 40 39
19 6 4 mech
19 20 41 40
20 6 4 mech
20 21 42 41
21 6 4 mech
22 23 44 43
22 6 4 mech
23 24 45 44
23 6 4 mech
24 25 46 45
24 6 4 mech
25 26 47 46
25 6 4 mech
26 27 48 47
26 6 4 mech
27 28 49 48
27 6 4 mech
28 29 50 49
28 6 4 mech
29 30 51 50
29 6 4 mech
30 31 52 51
30 6 4 mech
31 32 53 52
31 6 4 mech
32 33 54 53
32 6 4 mech
33 34 55 54
33 6 4 mech
34 35 56 55
34 6 4 mech
35 36 57 56
35 6 4 mech
36 37 58 57
36 6 4 mech
37 38 59 58
37 6 4 mech
38 39 60 59
38 6 4 mech
39 40 61 60
39 6 4 mech
40 41 62 61
40 6 4 mech
41 42 63 62
41 6 4 mech
43 44 65 64
42 6 4 mech
44 45 66 65
43 6 4 mech
45 46 67 66
44 6 4 mech
46 47 68 67
45 6 4 mech
47 48 69 68
46 6 4 mech
48 49 70 69
47 6 4 mech
49 50 71 70
48 6 4 mech
50 51 72 71
49 6 4 mech
51 52 73 72
50 6 4 mech
52 53 74 73
51 6 4 mech
53 54 75 74
52 6 4 mech
54 55 76 75
53 6 4 mech
55 56 77 76
54 6 4 mech
56 57 78 77
55 6 4 mech
57 58 79 78
56 6 4 mech
58 59 80 79
57 6 4 mech
59 60 81 80
58 6 4 mech
60 61 82 81
59 6 4 mech
61 62 83 82
60 6 4 mech
62 63 84 83
61 6 4 mech
64 65 86 85
62 6 4 mech
65 66 87 86
63 6 4 mech
66 67 88 87
64 6 4 mech
67 68 89 88
65 6 4 mech
68 69 90 89
66 6 4 mech
69 70 91 90
67 6 4 mech
70 71 92 91
68 6 4 mech
71 72 93 92
69 6 4 mech
72 73 94 93
70 6 4 mech
73 74 95 94
71 6 4 mech
74 75 96 95
72 6 4 mech
75 76 97 96
73 6 4 mech
76 77 98 97
74 6 4 mech
77 78 99 98
75 6 4 mech
78 79 100 99
76 6 4 mech
79 80 101 100
77 6 4 mech
80 81 102 101
78 6 4 mech
81 82 103 102
79 6 4 mech
82 83 104 103
80 6 4 mech
83 84 105 104
81 6 4 mech
85 86 107 106
82 6 4 mech
86 87 108 107
83 6 4 mech
87 88 109 108
84 6 4 mech
88 89 110 109
85 6 4 mech
89 90 111 110
86 6 4 mech
90 91 112 111
87 6 4 mech
91 92 113 112
88 6 4 mech
92 93 114 113
89 6 4 mech
93 94 115 114
90 6 4 mech
94 95 116 115
91 6 4 mech
95 96 117 116
92 6 4 mech
96 97 118 117
93 6 4 mech
97 98 119 118
94 6 4 mech
98 99 120 119
95 6 4 mech
99 100 121 120
96 6 4 mech
100 101 122 121
97 6 4 mech
101 102 123 122
98 6 4 mech
102 103 124 123
99 6 4 mech
103 104 125 124
100 6 4 mech
104 105 126 125
101 6 4 mech
106 107 128 127
102 6 4 mech
107 108 129 128
103 6 4 mech
108 109 130 129
104 6 4 mech
109 110 131 130
105 6 4 mech
110 111 132 131
106 6 4 mech
111 112 133 132
107 6 4 mech
112 113 134 133
108 6 4 mech
113 114 135 134
109 6 4 mech
114 115 136 135
110 6 4 mech
115 116 137 136
111 6 4 mech
116 117 138 137
112 6 4 mech
117 118 139 138
113 6 4 mech
118 119 140 139
114 6 4 mech
119 120 141 140
115 6 4 mech
120 121 142 141
116 6 4 mech
121 122 143 142
117 6 4 mech
122 123 144 143
118 6 4 mech
123 124 145 144
119 6 4 mech
124 125 146 145
120 6 4 mech
125 126 147 146
121 6 4 mech
127 128 149 148
122 6 4 mech
128 129 150 149
123 6 4 mech
129 130 151 150
124 6 4 mech
130 131 152 151
125 6 4 mech
131 132 153 152
126 6 4 mech
132 133 154 153
127 6 4 mech
133 134 155 154
128 6 4 mech
134 135 156 155
129 6 4 mech
135 136 157 156
130 6 4 mech
136 137 158 157
131 6 4 mech
137 138 159 158
132 6 4 mech
138 139 160 159
133 6 4 mech
139 140 161 160
134 6 4 mech
140 141 162 161
135 6 4 mech
141 142 163 162
136 6 4 mech
142 143 164 163
137 6 4 mech
143 144 165 164
138 6 4 mech
144 145 166 165
139 6 4 mech
145 146 167 166
140 6 4 mech
146 147 168 167
141 6 4 mech
148 149 170 169
142 6 4 mech
149 150 171 170
143 6 4 mech
150 151 172 171
144 6 4 mech
151 152 173 172
145 6 4 mech
152 153 174 173
146 6 4 mech
153 154 175 174
147 6 4 mech
154 155 176 175
148 6 4 mech
155 156 177 176
149 6 4 mech
156 157 178 177
150 6 4 mech
157 158 179 178
151 6 4 mech
158 159 180 179
152 6 4 mech
159 160 181 180
153 6 4 mech
160 161 182 181
154 6 4 mech
161 162 183 182
155 6 4 mech
162 163 184 183
156 6 4 mech
163 164 185 184
157 6 4 mech
164 165 186 185
158 6 4 mech
165 166 187 186
159 6 4 mech
166 167 188 187
160 6 4 mech
167 168 189 188
161 6 4 mech
169 170 191 190
162 6 4 mech
170 171 192 191
163 6 4 mech
171 172 193 192
164 6 4 mech
172 173 194 193
165 6 4 mech
173 174 195 194
166 6 4 mech
174 175 196 195
167 6 4 mech
175 176 197 196
168 6 4 mech
176 177 198 197
169 6 4 mech
177 178 199 198
170 6 4 mech
178 179 200 199
171 6 4 mech
179 180 201 200
172 6 4 mech
180 181 202 201
173 6 4 mech
181 182 203 202
174 6 4 mech
182 183 204 203
175 6 4 mech
183 184 205 204
176 6 4 mech
184 185 206 205
177 6 4 mech
185 186 207 206
178 6 4 mech
186 187 208 207
179 6 4 mech
187 188 209 208
180 6 4 mech
188 189 210 209
181 6 4 mech
190 191 212 211
182 6 4 mech
191 192 213 212
183 6 4 mech
192 193 214 213
184 6 4 mech
193 194 215 214
185 6 4 mech
194 195 216 215
186 6 4 mech
195 196 217 216
187 6 4 mech
196 197 218 217
188 6 4 mech
197 198 219 218
189 6 4 mech
198 199 220 219
190 6 4 mech
199 200 221 220
191 6 4 mech
200 201 222 221
192 6 4 mech
201 202 223 222
193 6 4 mech
202 203 224 223
194 6 4 mech
203 204 225 224
195 6 4 mech
204 205 226 225
196 6 4 mech
205 206 227 226
197 6 4 mech
206 207 228 227
198 6 4 mech
207 208 229 228
199 6 4 mech
208 209 230 229
200 6 4 mech
209 210 231 230
201 6 4 mech
211 212 233 232
202 6 4 mech
212 213 234 233
203 6 4 mech
213 214 235 234
204 6 4 mech
214 215 236 235
205 6 4 mech
215 216 237 236
206 6 4 mech
216 217 238 237
207 6 4 mech
217 218 239 238
208 6 4 mech
218 219 240 239
209 6 4 mech
219 220 241 240
210 6 4 mech
220 221 242 241
211 6 4 mech
221 222 243 242
212 6 4 mech
222 223 244 243
213 6 4 mech
223 224 245 244
214 6 4 mech
224 225 246 245
215 6 4 mech
225 226 247 246
216 6 4 mech
226 227 248 247
217 6 4 mech
227 228 249 248
218 6 4 mech
228 229 250 249
219 6 4 mech
229 230 251 250
220 6 4 mech
230 231 252 251
221 6 4 mech
232 233 254 253
222 6 4 mech
233 234 255 254
223 6 4 mech
234 235 256 255
224 6 4 mech
235 236 257 256
225 6 4 mech
236 237 258 257
226 6 4 mech
237 238 259 258
227 6 4 mech
238 239 260 259
228 6 4 mech
239 240 261 260
229 6 4 mech
240 241 262 261
230 6 4 mech
241 242 263 262
231 6 4 mech
242 243 264 263
232 6 4 mech
243 244 265 264
233 6 4 mech
244 245 266 265
234 6 4 mech
245 246 267 266
235 6 4 mech
246 247 268 267
236 6 4 mech
247 248 269 268
237 6 4 mech
248 249 270 269
238 6 4 mech
249 250 271 270
239 6 4 mech
250 251 272 271
240 6 4 mech
251 252 273 272
241 6 4 mech
253 254 275 274
242 6 4 mech
254 255 276 275
243 6 4 mech
255 256 277 276
244 6 4 mech
256 257 278 277
245 6 4 mech
257 258 279 278
246 6 4 mech
258 259 280 279
247 6 4 mech
259 260 281 280
248 6 4 mech
260 261 282 281
249 6 4 mech
261 262 283 282
250 6 4 mech
262 263 284 283
251 6 4 mech
263 264 285 284
252 6 4 mech
264 265 286 285
253 6 4 mech
265 266 287 286
254 6 4 mech
266 267 288 287
255 6 4 mech
267 268 289 288
256 6 4 mech
268 269 290 289
257 6 4 mech
269 270 291 290
258 6 4 mech
270 271 292 291
259 6 4 mech
271 272 293 292
260 6 4 mech
272 273 294 293

[3D Elements]
#ElemNr  ElemType  NrOfNodes  Level
#Node1 Node2 ... NodeNrOfNodes

[Node BC]
#NodeNr Level
1 south
2 south
3 south
4 south
5 south
6 south
7 south
8 south
9 south
10 south
11 south
12 south
13 south
14 south
15 south
16 south
17 south
18 south
19 south
20 south
21 south
274 north
275 north
276 north
277 north
278 north
279 north
280 north
281 north
282 north
283 north
284 north
285 north
286 north
287 north
288 north
289 north
290 north
291 north
292 north
293 north
294 north
1 west
22 west
43 west
64 west
85 west
106 west
127 west
148 west
169 west
190 west
211 west
232 west
253 west
274 west
21 east
42 east
63 east
84 east
105 east
126 east
147 east
168 east
189 east
210 east
231 east
252 east
273 east
294 east
1 left_lower
21 right_lower
274 left_upper
294 right_upper

[Save Nodes]
#NodeNr Level

[Save Elements]
#ElemNr Level

