
0                         -4.055156909841923E-5
8.33E-4                   -4.8135681095685565E-4
0.001667                  -9.009361884828992E-4
0.0025                    -0.001284584525618915
0.003333                  -0.0016223885623410403
0.004167                  -0.0019063092657546044
0.005                     -0.002130622045030616
0.005833                  -0.002290644058537603
0.006667                  -0.0023837818731586285
0.0075                    -0.002409547572544111
0.008333                  -0.0023690160156815353
0.009167                  -0.0022652594598595805
0.01                      -0.002102734050770306
0.010833                  -0.0018875550374076097
0.011667                  -0.0016272795526457262
0.0125                    -0.0013298618755138724
0.013333                  -0.001004616041267323
0.014167                  -6.614511170896612E-4
0.015                     -3.09674664975358E-4
0.015833                  4.063845394449882E-5
0.016667                  3.7973479195767637E-4
0.0175                    6.992386947232264E-4
0.018333                  9.907303513729412E-4
0.019167                  0.0012468776145323499
0.02                      0.001462116936815229
0.020833                  0.0016315148030546585
0.021667                  0.0017516747280481382
0.0225                    0.0018209144521661854
0.023333                  0.001838653502590427
0.024167                  0.0018059019178002628
0.025                     0.0017249335955906544
0.025833                  0.0015992999292331056
0.026667                  0.0014338203729409305
0.0275                    0.001233869544687918
0.028333                  0.0010059624385798647
0.029167                  7.572898644799128E-4
0.03                      4.9481749736504E-4
0.030833                  2.2625911195940123E-4
0.031667                  -4.0697278511940216E-5
0.0325                    -2.9925254866956E-4
0.033333                  -5.423943571018924E-4
0.034167                  -7.637741817269329E-4
0.035                     -9.583340929574318E-4
0.035833                  -0.0011213437975976885
0.036667                  -0.0012491675139856074
0.0375                    -0.001339527347396124
0.038333                  -0.0013908930266428793
0.039167                  -0.001402968503360267
0.04                      -0.001376560188519034
0.040833                  -0.0013134330343588495
0.041667                  -0.001216426158201342
0.0425                    -0.001088989106117004
0.043333                  -9.354996781149391E-4
0.044167                  -7.610119716510618E-4
0.045                     -5.705962112638899E-4
0.045833                  -3.700062274826334E-4
0.046667                  -1.6514890482173574E-4
0.0475                    3.860210500294811E-5
0.048333                  2.3557383328306973E-4
0.049167                  4.2045636949437985E-4
0.05                      5.88852805288637E-4
0.050833                  7.364896292616158E-4
0.051667                  8.598453881654272E-4
0.0525                    9.56446994184867E-4
0.053333                  0.0010243039987379704
0.054167                  0.0010623594457298121
0.055                     0.0010704841119564344
0.055833                  0.0010492484661362123
0.056667                  0.001000104966686662
0.0575                    9.251063381923367E-4
0.058333                  8.270408099736052E-4
0.059167                  7.093252839423371E-4
0.06                      5.755360766903933E-4
0.060833                  4.2984607097184836E-4
0.061667                  2.7667740711534005E-4
0.0625                    1.2016968118712818E-4
0.063333                  -3.520785539823945E-5
0.064167                  -1.851432390443818E-4
0.065                     -3.259467830827259E-4
0.065833                  -4.5392118872455305E-4
0.066667                  -5.658629269086513E-4
0.0675                    -6.593572677842166E-4
0.068333                  -7.322792960773156E-4
0.069167                  -7.831914238811658E-4
0.07                      -8.114134706558027E-4
0.070833                  -8.167604183935436E-4
0.071667                  -7.997517082816574E-4
0.0725                    -7.614584372297096E-4
0.073333                  -7.035197107854466E-4
0.074167                  -6.281302575658546E-4
0.075                     -5.377187052593759E-4
0.075833                  -4.3521587726340577E-4
0.076667                  -3.2384178732127936E-4
0.0775                    -2.0670399547717801E-4
0.078333                  -8.723452415244408E-5
0.079167                  3.115756545629886E-5
0.08                      1.4546736193119368E-4
0.080833                  2.526044531333558E-4
0.081667                  3.4978259188219455E-4
0.0825                    4.3479305874135927E-4
0.083333                  5.055809830798342E-4
0.084167                  5.605827615616197E-4
0.085                     5.988365742134697E-4
0.085833                  6.197182426942104E-4
0.086667                  6.231518618042763E-4
0.0875                    6.095449988973888E-4
0.088333                  5.797327179727151E-4
0.089167                  5.350226115311764E-4
0.09                      4.769841899410046E-4
0.090833                  4.075970861827447E-4
0.091667                  3.291335410595519E-4
0.0925                    2.438631324256557E-4
0.093333                  1.5435380481687756E-4
0.094167                  6.323258218858958E-5
0.095                     -2.7118448083571783E-5
0.095833                  -1.1419112767917709E-4
0.096667                  -1.9564640834177647E-4
0.0975                    -2.695553772847789E-4
0.098333                  -3.340506756618547E-4
0.099167                  -3.8760403707897736E-4
0.1                       -4.291531808702518E-4
0.100833                  -4.5785524822478823E-4
0.101667                  -4.7328331035338916E-4
0.1025                    -4.754188412747561E-4
0.103333                  -4.64556408283174E-4
0.104167                  -4.413798861342247E-4
0.105                     -4.0683328485373115E-4
0.105833                  -3.621865623113258E-4
0.106667                  -3.089835998820647E-4
0.1075                    -2.488315303373987E-4
0.108333                  -1.8359909291614928E-4
0.109167                  -1.1525903396049857E-4
0.11                      -4.565182827179781E-5
0.110833                  2.324062286168916E-5
0.111667                  8.951269742393573E-5
0.1125                    1.5153964373594464E-4
0.113333                  2.0769865127313465E-4
0.114167                  2.5659087977143773E-4
0.115                     2.971691667541327E-4
0.115833                  3.285194546306085E-4
0.116667                  3.500349221507023E-4
0.1175                    3.614432769242289E-4
0.118333                  3.6269465127837796E-4
0.119167                  3.54051084136037E-4
0.12                      3.360152529483305E-4
0.120833                  3.0934229998178E-4
0.121667                  2.7503069928565125E-4
0.1225                    2.3417715450853812E-4
0.123333                  1.8809943561372305E-4
0.124167                  1.3823884693274198E-4
0.125                     8.598123861659761E-5
0.125833                  3.2853060338789146E-5
0.126667                  -1.963454062841605E-5
0.1275                    -7.015400475127907E-5
0.128333                  -1.1734388913252319E-4
0.129167                  -1.599819362578312E-4
0.13                      -1.9710422141754172E-4
0.130833                  -2.278188214620096E-4
0.131667                  -2.51454214017731E-4
0.1325                    -2.6760548116171146E-4
0.133333                  -2.760200933348328E-4
0.134167                  -2.7668899446233743E-4
0.135                     -2.698150470494927E-4
0.135833                  -2.55791701905393E-4
0.136667                  -2.3522018889398082E-4
0.1375                    -2.0881394786743295E-4
0.138333                  -1.7746755409901163E-4
0.139167                  -1.422020552468494E-4
0.14                      -1.0403295993342823E-4
0.140833                  -6.410592036003249E-5
0.141667                  -2.3588874063402536E-5
0.1425                    1.6462584803795446E-5
0.143333                  5.493993293359633E-5
0.144167                  9.081321544381983E-5
0.145                     1.2323662774253396E-4
0.145833                  1.5139468638087825E-4
0.146667                  1.7462471029424404E-4
0.1475                    1.924710722813421E-4
0.148333                  2.0457781027006304E-4
0.149167                  2.1077421924695327E-4
0.15                      2.1106930609857784E-4
0.150833                  2.0561212135108764E-4
0.151667                  1.9472349073156568E-4
0.1525                    1.788368696679608E-4
0.153333                  1.5853011176532458E-4
0.154167                  1.3450034181762498E-4
0.155                     1.0746941959274199E-4
0.155833                  7.827386891158435E-5
0.156667                  4.7793421965241416E-5
0.1575                    1.6846076910150308E-5
0.158333                  -1.3689586944744844E-5
0.159167                  -4.2971704187399844E-5
0.16                      -7.028510419468822E-5
0.160833                  -9.491783733937664E-5
0.161667                  -1.1625946324556287E-4
0.1625                    -1.3385627665044053E-4
0.163333                  -1.4731561376467412E-4
0.164167                  -1.5638209194991965E-4
0.165                     -1.609480281735205E-4
0.165833                  -1.6100560295444203E-4
0.166667                  -1.5668504878883926E-4
0.1675                    -1.482214998280352E-4
0.168333                  -1.3596226565586875E-4
0.169167                  -1.203611662292592E-4
0.17                      -1.0191312765853851E-4
0.170833                  -8.121034988211828E-5
0.171667                  -5.8897705713705E-5
0.1725                    -3.5593004818955574E-5
0.173333                  -1.1974927078911727E-5
0.174167                  1.1286904198888802E-5
0.175                     3.360618897014303E-5
0.175833                  5.438339632835379E-5
0.176667                  7.308260638432452E-5
0.1775                    8.928340703372235E-5
0.178333                  1.0259898088138458E-4
0.179167                  1.1274134503319922E-4
0.18                      1.195405881815186E-4
0.180833                  1.2289553369073734E-4
0.181667                  1.2281308805952543E-4
0.1825                    1.1939300127637209E-4
0.183333                  1.128199613730194E-4
0.184167                  1.0336998172307812E-4
0.185                     9.136707037022257E-5
0.185833                  7.721520711169616E-5
0.186667                  6.1372979027531E-5
0.1875                    4.4294583221943186E-5
0.188333                  2.6490947817042525E-5
0.189167                  8.481143249156104E-6
0.19                      -9.267215703233984E-6
0.190833                  -2.6264371577663246E-5
0.191667                  -4.205698332892306E-5
0.1925                    -5.6274353609917914E-5
0.193333                  -6.856056840205269E-5
0.194167                  -7.862852986192965E-5
0.195                     -8.628311001030824E-5
0.195833                  -9.137441035403253E-5
0.196667                  -9.383501730690005E-5
0.1975                    -9.367656464882425E-5
0.198333                  -9.097330081350237E-5
0.199167                  -8.587523903970532E-5
0.2                       -7.858111100096615E-5
0.200833                  -6.935359652183411E-5
0.201667                  -5.8507272213266624E-5
0.2025                    -4.636620927591864E-5
0.203333                  -3.330471299908477E-5
0.204167                  -1.971495057186789E-5
0.205                     -5.960356777714149E-6
0.205833                  7.569724217100962E-6
0.206667                  2.050350425221821E-5
0.2075                    3.2526309565313365E-5
0.208333                  4.332594046634174E-5
0.209167                  5.2636167220686885E-5
0.21                      6.0260588338131186E-5
0.210833                  6.60307556036912E-5
0.211667                  6.983953731948522E-5
0.2125                    7.164498995194248E-5
0.213333                  7.144998433039723E-5
0.214167                  6.931847305765779E-5
0.215                     6.536010916570353E-5
0.215833                  5.97343706627047E-5
0.216667                  5.26473331945664E-5
0.2175                    4.43222067107379E-5
0.218333                  3.502498709740964E-5
0.219167                  2.5044085738417847E-5
0.22                      1.4654820916187076E-5
0.220833                  4.158840071353052E-6
0.221667                  -6.147230223451E-6
0.2225                    -1.6004547921879358E-5
0.223333                  -2.5149200192119967E-5
0.224167                  -3.334630986137422E-5
0.225                     -4.04126255758176E-5
0.225833                  -4.6180525744750166E-5
0.226667                  -5.052668830306858E-5
0.2275                    -5.338006415511232E-5
0.228333                  -5.470058686401898E-5
0.229167                  -5.4496154123400506E-5
0.23                      -5.281531984668143E-5
0.230833                  -4.9744477805827256E-5
0.231667                  -4.541014592352062E-5
0.2325                    -3.995933651102149E-5
0.233333                  -3.3574357776773215E-5
0.234167                  -2.646107185924315E-5
0.235                     -1.882253849219305E-5
0.235833                  -1.0886532986329964E-5
0.236667                  -2.8836704074937113E-6
0.2375                    4.978969337333403E-6
0.238333                  1.2485077275545351E-5
0.239167                  1.9435184439171614E-5
0.24                      2.5666892798738125E-5
0.240833                  3.1024948320718054E-5
0.241667                  3.538507004213154E-5
0.2425                    3.866381473022541E-5
0.243333                  4.07982455118522E-5
0.244167                  4.176213821149636E-5
0.245                     4.156402497855627E-5
0.245833                  4.0240421460558166E-5
0.246667                  3.786124943422741E-5
0.2475                    3.4517485167021035E-5
0.248333                  3.0328416154603912E-5
0.249167                  2.5435897122155158E-5
0.25                      1.9985340273381913E-5
0.250833                  1.4144156813328375E-5
0.251667                  8.087103198751317E-6
0.2525                    1.975599409195576E-6
0.253333                  -4.01786906952733E-6
0.254167                  -9.729161609842182E-6
0.255                     -1.501986810805969E-5
0.255833                  -1.975313504975815E-5
0.256667                  -2.3812908642803917E-5
0.2575                    -2.7114233457846393E-5
0.258333                  -2.9584934658861554E-5
0.259167                  -3.1180212659703144E-5
0.26                      -3.188402989929224E-5
0.260833                  -3.1700448226678434E-5
0.261667                  -3.066054691733905E-5
0.2625                    -2.8815303969795414E-5
0.263333                  -2.623782101593786E-5
0.264167                  -2.302157784682891E-5
0.265                     -1.9267168043378383E-5
0.265833                  -1.509399963472315E-5
0.266667                  -1.0631003795881819E-5
0.2675                    -6.000826737238409E-6
0.268333                  -1.3374966352126655E-6
0.269167                  3.227624876828741E-6
0.27                      7.580293665670248E-6
0.270833                  1.1604365421460645E-5
0.271667                  1.5196930112367371E-5
0.2725                    1.827814158489034E-5
0.273333                  2.0775401993363415E-5
0.274167                  2.2635958160840667E-5
0.275                     2.383019256136713E-5
0.275833                  2.4342441729149676E-5
0.276667                  2.4178320318903215E-5
0.2775                    2.336124056844437E-5
0.278333                  2.1931465843176212E-5
0.279167                  1.994688371862668E-5
0.28                      1.7474121724741776E-5
0.280833                  1.4595382490856665E-5
0.281667                  1.1403022061631072E-5
0.2825                    7.98777975486182E-6
0.283333                  4.451160976363933E-6
0.284167                  8.955946674221192E-7
0.285                     -2.5872371931823536E-6
0.285833                  -5.901815779449531E-6
0.286667                  -8.960387766403131E-6
0.2875                    -1.1691818589642438E-5
0.288333                  -1.4028394225282398E-5
0.289167                  -1.5916329321030455E-5
0.29                      -1.7319966303859125E-5
0.290833                  -1.821293191096672E-5
0.291667                  -1.8585186528942133E-5
0.2925                    -1.844196974668649E-5
0.293333                  -1.780102049843208E-5
0.294167                  -1.6694804604508437E-5
0.295                     -1.5164883431158648E-5
0.295833                  -1.3265350357996878E-5
0.296667                  -1.1060111310245295E-5
0.2975                    -8.61436662934414E-6
0.298333                  -6.002952253886963E-6
0.299167                  -3.303713613719473E-6
0.3                       -5.883264890269702E-7
0.300833                  2.066806751158427E-6
0.301667                  4.589222443307421E-6
0.3025                    6.918038022879268E-6
0.303333                  8.993254664681875E-6
0.304167                  1.0764271131193859E-5
0.305                     1.219433060985985E-5
0.305833                  1.3252504206989677E-5
0.306667                  1.3920077581107451E-5
0.3075                    1.4191025547390423E-5
0.308333                  1.4068329117536352E-5
0.309167                  1.3566917772673123E-5
0.31                      1.2710386342330115E-5
0.310833                  1.1532150998213533E-5
0.311667                  1.0074542217979724E-5
0.3125                    8.382838295945573E-6
0.313333                  6.51059436548416E-6
0.314167                  4.51541308335194E-6
0.315                     2.4519076440874087E-6
0.315833                  3.796179972718174E-7
0.316667                  -1.643281189532029E-6
0.3175                    -3.5663573436181073E-6
0.318333                  -5.338476705388215E-6
0.319167                  -6.914521126135525E-6
0.32                      -8.259669956540508E-6
0.320833                  -9.342444289635557E-6
0.321667                  -1.0140245583105444E-5
0.3225                    -1.0640714485628307E-5
0.323333                  -1.0837765038539919E-5
0.324167                  -1.0734748551237802E-5
0.325                     -1.0342811439230155E-5
0.325833                  -9.680600841928085E-6
0.326667                  -8.77450956183568E-6
0.3275                    -7.6546618899553E-6
0.328333                  -6.3580592505703085E-6
0.329167                  -4.926087944390291E-6
0.33                      -3.399264076540884E-6
0.330833                  -1.8228037299975986E-6
0.331667                  -2.4219925242686387E-7
0.3325                    1.3019486244366431E-6
0.333333                  2.7674344789430127E-6
0.334167                  4.115612839615838E-6
0.335                     5.315279909184565E-6
0.335833                  6.336843179237269E-6
0.336667                  7.15696106254914E-6
0.3375                    7.760337824284865E-6
0.338333                  8.135865611466187E-6
0.339167                  8.27969933029627E-6
0.34                      8.194716640412816E-6
0.340833                  7.889371816137942E-6
0.341667                  7.378616371772668E-6
0.3425                    6.681341065422449E-6
0.343333                  5.82198778813454E-6
0.344167                  4.829277309683925E-6
0.345                     3.73239505821979E-6
0.345833                  2.5647599330964074E-6
0.346667                  1.3610352590009032E-6
0.3475                    1.5305076583601808E-7
0.348333                  -1.0253269163405114E-6
0.349167                  -2.1420625423035504E-6
0.35                      -3.1703213656311525E-6
0.350833                  -4.083723065930783E-6
0.351667                  -4.860115228729923E-6
0.3525                    -5.483505781928561E-6
0.353333                  -5.940538382584681E-6
0.354167                  -6.223298882694996E-6
0.355                     -6.32947785518662E-6
0.355833                  -6.260790133968748E-6
0.356667                  -6.024238896664491E-6
0.3575                    -5.630614917338698E-6
0.358333                  -5.0950706898109955E-6
0.359167                  -4.436673381306235E-6
0.36                      -3.675726392898619E-6
0.360833                  -2.8361890156109396E-6
0.361667                  -1.943762115451487E-6
0.3625                    -1.022752294055736E-6
0.363333                  -9.962299347924431E-8
0.364167                  7.998212812386324E-7
0.365                     1.6532602615619666E-6
0.365833                  2.4380950172924144E-6
0.366667                  3.134435661887826E-6
0.3675                    3.726983306109455E-6
0.368333                  4.201949560012442E-6
0.369167                  4.549506246246902E-6
0.37                      4.764362611384064E-6
0.370833                  4.844029756449044E-6
0.371667                  4.790205747038254E-6
0.3725                    4.608019967049087E-6
0.373333                  4.305937945993191E-6
0.374167                  3.895846112347081E-6
0.375                     3.3912476609627833E-6
0.375833                  2.8086973069713482E-6
0.376667                  2.1666717893048357E-6
0.3775                    1.4832223172155102E-6
0.378333                  7.784816071838189E-7
0.379167                  7.268167084816737E-8
0.38                      -6.161469655035655E-7
0.380833                  -1.269266033303872E-6
0.381667                  -1.8695341537253763E-6
0.3825                    -2.4031297111821733E-6
0.383333                  -2.856948857096061E-6
0.384167                  -3.220670613924471E-6
0.385                     -3.487548343801408E-6
0.385833                  -3.6526956158077624E-6
0.386667                  -3.714451342816523E-6
0.3875                    -3.6741315138483323E-6
0.388333                  -3.5355303001438335E-6
0.389167                  -3.3053248932844205E-6
0.39                      -2.991929369371343E-6
0.390833                  -2.606229660513531E-6
0.391667                  -2.1610118763597836E-6
0.3925                    -1.6692569230651137E-6
0.393333                  -1.1458399188797007E-6
0.394167                  -6.061936270219187E-7
0.395                     -6.448454515524327E-8
0.395833                  4.6419486985814015E-7
0.396667                  9.655559409388521E-7
0.3975                    1.427623902351047E-6
0.398333                  1.8386009954890048E-6
0.399167                  2.188556826355795E-6
0.4                       2.4703002292502264E-6
0.400833                  2.6777891082609305E-6
0.401667                  2.8073931512154244E-6
0.4025                    2.8579769867369845E-6
0.403333                  2.8301822646322877E-6
0.404167                  2.727004931664413E-6
0.405                     2.5531337903909202E-6
0.405833                  2.3152024232969095E-6
0.406667                  2.0216025778785402E-6
0.4075                    1.681290634871041E-6
0.408333                  1.304874844493775E-6
0.409167                  9.037691114138471E-7
0.41                      4.887854349900336E-7
0.410833                  7.173948978154093E-8
0.411667                  -3.3580720011887837E-7
0.4125                    -7.238271918869282E-7
0.413333                  -1.0821148503672115E-6
0.414167                  -1.401633014771628E-6
0.415                     -1.675380630157956E-6
0.415833                  -1.8969776558181431E-6
0.416667                  -2.0617834247337494E-6
0.4175                    -2.167185063776906E-6
0.418333                  -2.2117833037168684E-6
0.419167                  -2.196043422892262E-6
0.42                      -2.1219839704604508E-6
0.420833                  -1.993105147098605E-6
0.421667                  -1.8144597362527851E-6
0.4225                    -1.5918607751097815E-6
0.423333                  -1.3325124151395294E-6
0.424167                  -1.044530192878091E-6
0.425                     -7.358868888338951E-7
0.425833                  -4.1554754781336983E-7
0.426667                  -9.259206261982355E-8
0.4275                    2.2483924397151812E-7
0.428333                  5.282051469090017E-7
0.429167                  8.096070523393266E-7
0.43                      1.062602933466828E-6
0.430833                  1.2809843679914633E-6
0.431667                  1.459735192533736E-6
0.4325                    1.5954380399358448E-6
0.433333                  1.6854405206644285E-6
0.434167                  1.7285172107862573E-6
0.435                     1.7248075787811818E-6
0.435833                  1.6755337268520315E-6
0.436667                  1.583237964739491E-6
0.4375                    1.4513018804683673E-6
0.438333                  1.284240322659548E-6
0.439167                  1.0874929161461203E-6
0.44                      8.666647679930983E-7
0.440833                  6.282885499116554E-7
0.441667                  3.792506985813947E-7
0.4425                    1.2594603234622095E-7
0.443333                  -1.2469851604640538E-7
0.444167                  -3.660063084219355E-7
0.445                     -5.9228571556033E-7
0.445833                  -7.977955430678652E-7
0.446667                  -9.775446082062794E-7
0.4475                    -1.12775888307672E-6
0.448333                  -1.2450715253086659E-6
0.449167                  -1.3271589719928396E-6
0.45                      -1.3728552222117955E-6
0.450833                  -1.3817348639698809E-6
0.451667                  -1.3544551433976493E-6
0.4525                    -1.2925169442844321E-6
0.453333                  -1.1983093411729698E-6
0.454167                  -1.0751021572122148E-6
0.455                     -9.265314649786677E-7
0.455833                  -7.57066174530507E-7
0.456667                  -5.716769900763018E-7
0.4575                    -3.751793172670557E-7
0.458333                  -1.7299071078166469E-7
0.459167                  2.9428477072935576E-8
0.46                      2.2722013728275266E-7
0.460833                  4.152676298949975E-7
0.461667                  5.888449010724107E-7
0.4625                    7.441083525395007E-7
0.463333                  8.773315000987436E-7
0.464167                  9.854954189653239E-7
0.465                     1.066529347504519E-6
0.465833                  1.1188063782896442E-6
0.466667                  1.1415496748416543E-6
0.4675                    1.1347846612318237E-6
0.468333                  1.0991940684188697E-6
0.469167                  1.0362625093075591E-6
0.47                      9.47967608507019E-7
0.470833                  8.37008158741128E-7
0.471667                  7.066708544346486E-7
0.4725                    5.603419101306493E-7
0.473333                  4.020395177004176E-7
0.474167                  2.360469460137699E-7
0.475                     6.63595467234737E-8
0.475833                  -1.0261034354540902E-7
0.476667                  -2.6654265339806445E-7
0.4775                    -4.21705141021915E-7
0.478333                  -5.642392108825878E-7
0.479167                  -6.906952282008474E-7
0.48                      -7.983672671014733E-7
0.480833                  -8.847275790624821E-7
0.481667                  -9.478723170973661E-7
0.4825                    -9.866309824976174E-7
0.483333                  -1.0002687742052083E-6
0.484167                  -9.887514791689992E-7
0.485                     -9.526151362899903E-7
0.485833                  -8.929930899327123E-7
0.486667                  -8.116505839120899E-7
0.4875                    -7.106506211420527E-7
0.488333                  -5.926905141528085E-7
0.489167                  -4.609065342866599E-7
0.49                      -3.184128564490511E-7
0.490833                  -1.6886607178416274E-7
0.491667                  -1.6087832377974405E-8
0.4925                    1.3642242078042213E-7
0.493333                  2.848236542831703E-7
0.494167                  4.254085123184399E-7
0.495                     5.550133263837776E-7
0.495833                  6.704026455351895E-7
0.496667                  7.687407382663194E-7
0.4975                    8.478410919416979E-7
0.498333                  9.057399788483128E-7
0.499167                  9.410451290189844E-7
0.5                       9.524810748044225E-7
