[Info]
Version 1
Dimension 2
NumNodes 42
Num3DElements 0
Num2DElements 20
Num1DElements 0
NumNodeBC 5
NumSaveNodes 0
NumSaveElements 0
Num 2d-line      : 0
Num 2d-line,quad : 0
Num 3d-line      : 0
Num 3d-line,quad : 0
Num triangle     : 0
Num triangle,quad: 0
Num quadr        : 20
Num quadr,quad   : 0
Num tetra        : 0
Num tetra,quad   : 0
Num brick        : 0
Num brick,quad   : 0
Num pyramid      : 0
Num pyramid,quad : 0
Num wedge        : 0
Num wedge,quad   : 0

[Nodes]
#NodeNr x-coord y-coord z-coord
       1  0.0000000000000e+00  0.0000000000000e+00  0.0000000000000e+00 
       2  0.0000000000000e+00  4.0000000000000e-06  0.0000000000000e+00 
       3  5.0000000000000e-05  0.0000000000000e+00  0.0000000000000e+00 
       4  5.0000000000000e-05  4.0000000000000e-06  0.0000000000000e+00 
       5  1.0000000000000e-04  0.0000000000000e+00  0.0000000000000e+00 
       6  1.0000000000000e-04  4.0000000000000e-06  0.0000000000000e+00 
       7  1.5000000000000e-04  0.0000000000000e+00  0.0000000000000e+00 
       8  1.5000000000000e-04  4.0000000000000e-06  0.0000000000000e+00 
       9  2.0000000000000e-04  0.0000000000000e+00  0.0000000000000e+00 
      10  2.0000000000000e-04  4.0000000000000e-06  0.0000000000000e+00 
      11  2.5000000000000e-04  0.0000000000000e+00  0.0000000000000e+00 
      12  2.5000000000000e-04  4.0000000000000e-06  0.0000000000000e+00 
      13  3.0000000000000e-04  0.0000000000000e+00  0.0000000000000e+00 
      14  3.0000000000000e-04  4.0000000000000e-06  0.0000000000000e+00 
      15  3.5000000000000e-04  0.0000000000000e+00  0.0000000000000e+00 
      16  3.5000000000000e-04  4.0000000000000e-06  0.0000000000000e+00 
      17  4.0000000000000e-04  0.0000000000000e+00  0.0000000000000e+00 
      18  4.0000000000000e-04  4.0000000000000e-06  0.0000000000000e+00 
      19  4.5000000000000e-04  0.0000000000000e+00  0.0000000000000e+00 
      20  4.5000000000000e-04  4.0000000000000e-06  0.0000000000000e+00 
      21  5.0000000000000e-04  0.0000000000000e+00  0.0000000000000e+00 
      22  5.0000000000000e-04  4.0000000000000e-06  0.0000000000000e+00 
      23  5.5000000000000e-04  0.0000000000000e+00  0.0000000000000e+00 
      24  5.5000000000000e-04  4.0000000000000e-06  0.0000000000000e+00 
      25  6.0000000000000e-04  0.0000000000000e+00  0.0000000000000e+00 
      26  6.0000000000000e-04  4.0000000000000e-06  0.0000000000000e+00 
      27  6.5000000000000e-04  0.0000000000000e+00  0.0000000000000e+00 
      28  6.5000000000000e-04  4.0000000000000e-06  0.0000000000000e+00 
      29  7.0000000000000e-04  0.0000000000000e+00  0.0000000000000e+00 
      30  7.0000000000000e-04  4.0000000000000e-06  0.0000000000000e+00 
      31  7.5000000000000e-04  0.0000000000000e+00  0.0000000000000e+00 
      32  7.5000000000000e-04  4.0000000000000e-06  0.0000000000000e+00 
      33  8.0000000000000e-04  0.0000000000000e+00  0.0000000000000e+00 
      34  8.0000000000000e-04  4.0000000000000e-06  0.0000000000000e+00 
      35  8.5000000000000e-04  0.0000000000000e+00  0.0000000000000e+00 
      36  8.5000000000000e-04  4.0000000000000e-06  0.0000000000000e+00 
      37  9.0000000000000e-04  0.0000000000000e+00  0.0000000000000e+00 
      38  9.0000000000000e-04  4.0000000000000e-06  0.0000000000000e+00 
      39  9.5000000000000e-04  0.0000000000000e+00  0.0000000000000e+00 
      40  9.5000000000000e-04  4.0000000000000e-06  0.0000000000000e+00 
      41  1.0000000000000e-03  0.0000000000000e+00  0.0000000000000e+00 
      42  1.0000000000000e-03  4.0000000000000e-06  0.0000000000000e+00 


[1D Elements]
#ElemNr  ElemType  NrOfNodes  Level
#Node1 Node2 ... NodeNrOfNodes

[2D Elements]
#ElemNr  ElemType  NrOfNodes  Level
#Node1 Node2 ... NodeNrOfNodes
1 6 4 bat
3 4 2 1
2 6 4 bat
5 6 4 3
3 6 4 bat
7 8 6 5
4 6 4 bat
9 10 8 7
5 6 4 bat
11 12 10 9
6 6 4 bat
13 14 12 11
7 6 4 bat
15 16 14 13
8 6 4 bat
17 18 16 15
9 6 4 bat
19 20 18 17
10 6 4 bat
21 22 20 19
11 6 4 bat
23 24 22 21
12 6 4 bat
25 26 24 23
13 6 4 bat
27 28 26 25
14 6 4 bat
29 30 28 27
15 6 4 bat
31 32 30 29
16 6 4 bat
33 34 32 31
17 6 4 bat
35 36 34 33
18 6 4 bat
37 38 36 35
19 6 4 bat
39 40 38 37
20 6 4 bat
41 42 40 39


[3D Elements]
#ElemNr  ElemType  NrOfNodes  Level
#Node1 Node2 ... NodeNrOfNodes

[Node BC]
#NodeNr Level
42 excite
1 fix-all
2 fix-all
41 sym
42 sym

[Save Nodes]
#NodeNr Level


[Save Elements]
#ElemNr Level

