[Info]
Version 1
Dimension 2
NumNodes 16
Num3DElements 0
Num2DElements 9
Num1DElements 0
NumNodeBC 16
NumSaveNodes 0
NumSaveElements 0
Num 2d-line      : 0
Num 2d-line,quad : 0
Num 3d-line      : 0
Num 3d-line,quad : 0
Num triangle     : 0
Num triangle,quad: 0
Num quadr        : 9
Num quadr,quad   : 0
Num tetra        : 0
Num tetra,quad   : 0
Num brick        : 0
Num brick,quad   : 0
Num pyramid      : 0
Num pyramid,quad : 0
Num wedge        : 0
Num wedge,quad   : 0

[Nodes]
#NodeNr x-coord y-coord z-coord
       1  1.0000000000000e+00  1.0000000000000e+00  0.0000000000000e+00 
       2  1.0000000000000e+00  6.6700000000000e-01  0.0000000000000e+00 
       3  6.6700000000000e-01  1.0000000000000e+00  0.0000000000000e+00 
       4  6.6700000000000e-01  6.6700000000000e-01  0.0000000000000e+00 
       5  1.0000000000000e+00  3.3300000000000e-01  0.0000000000000e+00 
       6  3.3300000000000e-01  1.0000000000000e+00  0.0000000000000e+00 
       7  6.6700000000000e-01  3.3300000000000e-01  0.0000000000000e+00 
       8  3.3300000000000e-01  6.6700000000000e-01  0.0000000000000e+00 
       9  3.3300000000000e-01  3.3300000000000e-01  0.0000000000000e+00 
      10  1.0000000000000e+00  0.0000000000000e+00  0.0000000000000e+00 
      11  0.0000000000000e+00  1.0000000000000e+00  0.0000000000000e+00 
      12  6.6700000000000e-01  0.0000000000000e+00  0.0000000000000e+00 
      13  0.0000000000000e+00  6.6700000000000e-01  0.0000000000000e+00 
      14  3.3300000000000e-01  0.0000000000000e+00  0.0000000000000e+00 
      15  0.0000000000000e+00  3.3300000000000e-01  0.0000000000000e+00 
      16  0.0000000000000e+00  0.0000000000000e+00  0.0000000000000e+00 


[1D Elements]
#ElemNr  ElemType  NrOfNodes  Level
#Node1 Node2 ... NodeNrOfNodes

[2D Elements]
#ElemNr  ElemType  NrOfNodes  Level
#Node1 Node2 ... NodeNrOfNodes
1 6 4 outer
14 9 15 16
2 6 4 outer
12 7 9 14
3 6 4 outer
5 7 12 10
4 6 4 outer
8 13 15 9
5 6 4 inner
7 4 8 9
6 6 4 outer
2 4 7 5
7 6 4 outer
8 6 11 13
8 6 4 outer
4 3 6 8
9 6 4 outer
2 1 3 4


[3D Elements]
#ElemNr  ElemType  NrOfNodes  Level
#Node1 Node2 ... NodeNrOfNodes

[Node BC]
#NodeNr Level
1 right
1 up
10 right
10 down
11 left
11 up
12 down
13 left
14 down
15 left
16 left
16 down
2 right
3 up
5 right
6 up

[Save Nodes]
#NodeNr Level


[Save Elements]
#ElemNr Level

