$MeshFormat
2.2 0 8
$EndMeshFormat
$PhysicalNames
6
1 1 "innerR"
1 2 "innerL"
1 3 "innerT"
1 4 "innerB"
1 5 "source"
2 6 "inner"
$EndPhysicalNames
$Nodes
478
1 0.2710017332299538 0.2002371648085151 0
2 0.2710017332299538 -0.2002371648085151 0
3 -0.2710017332299538 -0.2002371648085151 0
4 -0.2710017332299538 0.2002371648085151 0
5 -1 -1 0
6 1 -1 0
7 1 1 0
8 -1 1 0
9 0.3200402494710133 0.1054092040702476 0
10 0.3369523135166036 5.40095745904523e-13 0
11 0.3200402494711605 -0.1054092040698008 0
12 0.1965941274763431 -0.2736560078383204 0
13 0.1032662496547362 -0.3207381225648695 0
14 7.830402992681229e-13 -0.3369523135166036 0
15 -0.103266249653805 -0.3207381225651693 0
16 -0.1965941274759922 -0.2736560078385725 0
17 -0.3200402494710133 -0.1054092040702476 0
18 -0.3369523135166036 -5.40095745904523e-13 0
19 -0.3200402494711605 0.1054092040698008 0
20 -0.1965941274763431 0.2736560078383204 0
21 -0.1032662496547362 0.3207381225648695 0
22 -7.830402992681229e-13 0.3369523135166036 0
23 0.103266249653805 0.3207381225651693 0
24 0.1965941274759922 0.2736560078385725 0
25 -1 -0.9000000000002774 0
26 -1 -0.8000000000005548 0
27 -1 -0.7000000000008322 0
28 -1 -0.6000000000011096 0
29 -1 -0.500000000001387 0
30 -1 -0.4000000000016644 0
31 -1 -0.3000000000019418 0
32 -1 -0.2000000000022192 0
33 -1 -0.1000000000024964 0
34 -1 -2.752242878045763e-12 0
35 -1 0.09999999999750342 0
36 -1 0.1999999999977808 0
37 -1 0.2999999999980583 0
38 -1 0.3999999999983355 0
39 -1 0.4999999999986129 0
40 -1 0.5999999999988903 0
41 -1 0.699999999999168 0
42 -1 0.7999999999994454 0
43 -1 0.8999999999997226 0
44 -0.9000000000002774 1 0
45 -0.8000000000005548 1 0
46 -0.7000000000008322 1 0
47 -0.6000000000011096 1 0
48 -0.500000000001387 1 0
49 -0.4000000000016644 1 0
50 -0.3000000000019418 1 0
51 -0.2000000000022192 1 0
52 -0.1000000000024964 1 0
53 -2.752242878045763e-12 1 0
54 0.09999999999750342 1 0
55 0.1999999999977808 1 0
56 0.2999999999980583 1 0
57 0.3999999999983355 1 0
58 0.4999999999986129 1 0
59 0.5999999999988903 1 0
60 0.699999999999168 1 0
61 0.7999999999994454 1 0
62 0.8999999999997226 1 0
63 1 0.9000000000002774 0
64 1 0.8000000000005548 0
65 1 0.7000000000008322 0
66 1 0.6000000000011096 0
67 1 0.500000000001387 0
68 1 0.4000000000016644 0
69 1 0.3000000000019418 0
70 1 0.2000000000022192 0
71 1 0.1000000000024964 0
72 1 2.752242878045763e-12 0
73 1 -0.09999999999750342 0
74 1 -0.1999999999977808 0
75 1 -0.2999999999980583 0
76 1 -0.3999999999983355 0
77 1 -0.4999999999986129 0
78 1 -0.5999999999988903 0
79 1 -0.699999999999168 0
80 1 -0.7999999999994454 0
81 1 -0.8999999999997226 0
82 0.9000000000002774 -1 0
83 0.8000000000005548 -1 0
84 0.7000000000008322 -1 0
85 0.6000000000011096 -1 0
86 0.500000000001387 -1 0
87 0.4000000000016644 -1 0
88 0.3000000000019418 -1 0
89 0.2000000000022192 -1 0
90 0.1000000000024964 -1 0
91 2.752242878045763e-12 -1 0
92 -0.09999999999750342 -1 0
93 -0.1999999999977808 -1 0
94 -0.2999999999980583 -1 0
95 -0.3999999999983355 -1 0
96 -0.4999999999986129 -1 0
97 -0.5999999999988903 -1 0
98 -0.699999999999168 -1 0
99 -0.7999999999994454 -1 0
100 -0.8999999999997226 -1 0
101 0.343901559906835 -0.2802134483275282 0
102 0.4168013865836567 -0.3601897318464761 0
103 0.489701213260448 -0.4401660153653905 0
104 0.5626010399372422 -0.5201422988843081 0
105 0.6355008666140393 -0.6001185824032289 0
106 0.7084006932911946 -0.6800948659225426 0
107 0.7813005199683415 -0.7600711494418474 0
108 0.8542003466455356 -0.8400474329612037 0
109 0.927100173322753 -0.9200237164805856 0
110 -0.343901559906835 -0.2802134483275282 0
111 -0.4168013865836567 -0.3601897318464761 0
112 -0.489701213260448 -0.4401660153653905 0
113 -0.5626010399372422 -0.5201422988843081 0
114 -0.6355008666140393 -0.6001185824032289 0
115 -0.7084006932911946 -0.6800948659225426 0
116 -0.7813005199683415 -0.7600711494418474 0
117 -0.8542003466455356 -0.8400474329612037 0
118 -0.927100173322753 -0.9200237164805856 0
119 -0.343901559906835 0.2802134483275282 0
120 -0.4168013865836567 0.3601897318464761 0
121 -0.489701213260448 0.4401660153653905 0
122 -0.5626010399372422 0.5201422988843081 0
123 -0.6355008666140393 0.6001185824032289 0
124 -0.7084006932911946 0.6800948659225426 0
125 -0.7813005199683415 0.7600711494418474 0
126 -0.8542003466455356 0.8400474329612037 0
127 -0.927100173322753 0.9200237164805856 0
128 0.343901559906835 0.2802134483275282 0
129 0.4168013865836567 0.3601897318464761 0
130 0.489701213260448 0.4401660153653905 0
131 0.5626010399372422 0.5201422988843081 0
132 0.6355008666140393 0.6001185824032289 0
133 0.7084006932911946 0.6800948659225426 0
134 0.7813005199683415 0.7600711494418474 0
135 0.8542003466455356 0.8400474329612037 0
136 0.927100173322753 0.9200237164805856 0
137 0.7442639673344086 0.5939083655730436 0
138 0.7442658931411629 -0.5939064115225851 0
139 0.5593207208740273 0.1497257824836121 0
140 0.9026185891458679 0.755267572218004 0
141 0.9026185891458806 -0.755267572217257 0
142 0.714837561095661 -0.2242437941003062 0
143 0.8758206507518325 -0.2379126972070162 0
144 0.8762203975897047 0.236150754583344 0
145 0.6154468969213728 -0.06488315675749107 0
146 0.5249102006632794 -0.01011605355388398 0
147 0.8580709659408615 0.4081432131960124 0
148 0.8580716813168248 -0.4081418552895398 0
149 0.8366999492088144 0.02522019145655634 0
150 0.4505494898551933 -0.02719708234601279 0
151 0.442723661324454 0.07970370061909969 0
152 0.4318762373741827 0.193650015159849 0
153 0.388016054027099 -0.2099348250727621 0
154 0.8970818264687527 -0.5724902843681028 0
155 0.8970811217311309 0.5724915721480005 0
156 0.8256139559459625 -0.6649200983836392 0
157 0.825613329931946 0.6649209186307138 0
158 0.6818333612765684 -0.5060454675188771 0
159 0.6818262059436568 0.506051596875813 0
160 0.4581082427320048 -0.2938472324060137 0
161 0.4582026164847243 0.2937019015921711 0
162 0.9262639327481037 0.6614611880599237 0
163 0.9262642372563109 -0.661460627090266 0
164 0.9019420572927161 -0.1410964679283613 0
165 0.8782008031000372 0.1321758829028579 0
166 0.8051328868543923 0.4977376425935812 0
167 0.8051387978319413 -0.4977288882423983 0
168 0.6313182412378374 0.3994840667363619 0
169 0.6251964580156494 -0.3868132770100949 0
170 0.6582991488362032 0.09935515687816607 0
171 0.5747856827258697 -0.4463100362763541 0
172 0.5776349954389601 0.4464983986013365 0
173 0.7139800282397876 -0.00120848373598384 0
174 0.697433362314354 -0.3198734828854716 0
175 0.7940862130756213 -0.2773746664176729 0
176 0.7891614120642461 0.2917759255978346 0
177 0.6085487305328275 0.02067014789531606 0
178 0.7870475003619364 0.3813791804171598 0
179 0.7907953107901721 -0.3754240769508119 0
180 0.9250721122574466 -0.3638433062100696 0
181 0.9250719966324366 0.3638435718826749 0
182 0.7177627972928267 0.424230325590208 0
183 0.719272037785741 -0.4164274872962008 0
184 0.7144542207390483 -0.1239287100637604 0
185 0.8633140985009858 -0.325062049995736 0
186 0.8578132024321786 0.3247576589585449 0
187 0.9372553936570935 0.8461535069628631 0
188 0.9372553936570988 -0.8461535069623976 0
189 0.5832838263208342 -0.294545934390273 0
190 0.9152138746781803 -0.4629269619050295 0
191 0.915213346024367 0.4629280686851616 0
192 0.612906208020171 -0.1798036109023846 0
193 0.5925137247140324 0.3022014885718067 0
194 0.9438919804466672 0.03628909533721536 0
195 0.9087833287146807 -0.03962051472512315 0
196 0.7942689266206192 0.2242202463079856 0
197 0.8015608024335825 -0.1807531546346835 0
198 0.5277656311625912 -0.374180353203007 0
199 0.5300917176658551 0.3740042827923971 0
200 0.9320126659231054 0.2879512365212659 0
201 0.9330247088687862 -0.288249812182408 0
202 0.6302171229219403 0.2032278378764924 0
203 0.4215530720495704 -0.1090560289009982 0
204 0.4937834356799332 0.1514155848289103 0
205 0.8185511360004634 -0.5855743629129093 0
206 0.8185488395366216 0.5855775822672624 0
207 0.5395300499429955 0.07819374328985655 0
208 0.515141413532007 -0.1111236426116528 0
209 0.4973240170872388 -0.2109821469397729 0
210 0.5100757496576117 0.2215759368632717 0
211 0.6552882287384747 -0.2530186161153151 0
212 0.698871364776902 0.2560345558322987 0
213 0.7035789607924425 0.3476651038183819 0
214 0.7444779745075311 0.1719116121842387 0
215 0.7695894345922422 0.08549042261780584 0
216 0.8131199522662366 -0.07756068661334958 0
217 -0.2335179155097171 0.6203136450683877 0
218 0.2335845506444861 0.6204410958583126 0
219 0.5351561059620291 0.7772383345966277 0
220 -0.5494624726097884 0.8053885041714154 0
221 -0.3689994931638477 0.4512972981769193 0
222 0.3690076047571226 0.4513068423631947 0
223 -0.6360313011754345 0.854908780718968 0
224 -0.7210197588232971 0.8472169340638127 0
225 0.2965746127792394 0.4001437947615256 0
226 -0.2965046496559491 0.4000550809263065 0
227 -0.0001232580092748048 0.6700220694331169 0
228 -0.09294404810078399 0.4938841253226853 0
229 0.09308113838735477 0.4942662805035963 0
230 -0.2230849996310854 0.8318063123578581 0
231 0.2229610977207758 0.8317820440720591 0
232 -0.1942027665413791 0.472977215778246 0
233 0.1943488169641663 0.4732493047860643 0
234 -0.402252711125478 0.7192381018186107 0
235 0.06754209135277697 0.7125181125091454 0
236 -0.06772959006909302 0.7117868182854044 0
237 0.5925393776204071 0.6890523868252949 0
238 -0.5944895243765759 0.6909029130359313 0
239 0.3341252919062281 0.5602793192840697 0
240 -0.334095037338541 0.5602092471517788 0
241 2.832810467647933e-05 0.8636214604739305 0
242 0.5582698916507247 0.8916088220364686 0
243 -0.1956674842353545 0.3734409118265713 0
244 0.1957761550010966 0.3735400644227668 0
245 -0.7711700779484149 0.9252367001099209 0
246 -0.6646930965664581 0.7716420356570329 0
247 0.6665466735728078 0.8076086598369955 0
248 -0.1000870035125215 0.8558289201430083 0
249 0.1003471099806664 0.8551385884406342 0
250 -0.2367431616709119 0.7177385259013671 0
251 0.2367696961236142 0.7177917340530813 0
252 0.3301124920582805 0.7736557692339798 0
253 -0.3140304980823421 0.7577994737408906 0
254 -0.1419684315505713 0.7648943576339478 0
255 0.1418404509649489 0.7651200914710559 0
256 2.878584027409811e-05 0.4952417012147284 0
257 0.04606947896291532 0.4165292997186453 0
258 -0.04466059110062983 0.4160661611108056 0
259 0.3366762250466758 0.678404911232757 0
260 -0.3304221595417231 0.6700467447232337 0
261 0.1251551427243456 0.4189615777564605 0
262 -0.1591366259112493 0.563507747219097 0
263 -0.1247773433141619 0.4187338970875309 0
264 0.1592457217495666 0.5637578268575003 0
265 -0.4022462215826623 0.809183120412275 0
266 0.4022391051751436 0.8458861913170985 0
267 0.5069838741651336 0.6939472183747006 0
268 -0.4804149809615637 0.6923550382372436 0
269 0.431887861829126 0.7456154428971453 0
270 -0.4536931878579827 0.7621583301902002 0
271 0.8263300870262594 0.918080841662322 0
272 -0.0001496954038344173 0.7460993936349697 0
273 0.3188326381379766 0.8623491596317077 0
274 -0.3378387822911899 0.8631717652916278 0
275 0.4343575377391736 0.6387353445669317 0
276 -0.4185311872707237 0.6283437006944997 0
277 -0.05963090777529192 0.5908620535189988 0
278 0.05945258892977989 0.5945872927495841 0
279 0.3587387122091381 0.9265791536598987 0
280 -0.3511441764479235 0.9419203172539069 0
281 -0.5208214622358559 0.6073143304238064 0
282 0.5203685524222278 0.6070464618034486 0
283 0.2859911365837518 0.4886940851336996 0
284 -0.285921043301871 0.4885924890878949 0
285 0.4793982412657215 0.8374033884185871 0
286 -0.4732642657561283 0.8432655089533184 0
287 0.1489423027073262 0.6590105907819344 0
288 -0.1488617333606564 0.6582827133762654 0
289 -0.4535386015754159 0.5369976161315329 0
290 0.4534501630716106 0.5369830254608652 0
291 -0.2431004179082711 0.5416177682068087 0
292 0.2431932953275532 0.5417763453198461 0
293 -0.6716586822492677 0.92728713271813 0
294 0.2670382322357683 0.3100733176433988 0
295 -0.2669967145219767 0.3100356540603387 0
296 0.1571741158785731 0.9266437797904341 0
297 -0.5119545714799147 0.8991538463360202 0
298 0.4525186244577711 0.9175506350086237 0
299 -0.2596553375659261 0.9300846293034117 0
300 0.2613520800474893 0.9253734138449248 0
301 -0.1568135122664772 0.9275381106583751 0
302 0.7332982145487736 0.9111557439208489 0
303 -0.04631610478579229 0.7971438759126248 0
304 0.04663691297014885 0.7939319660559389 0
305 -0.5820777517612173 0.9154500428052599 0
306 -0.4270290686830412 0.9085331437940792 0
307 0.7747330679007023 0.8482079737362935 0
308 0.05236213123597831 0.9320011353641955 0
309 -0.051122080707556 0.9299420811267123 0
310 0.6555487732622871 0.9231748389396288 0
311 -0.8538443940230761 0.9380998797390699 0
312 -0.7442639673344086 -0.5939083655730438 0
313 -0.7442658931411629 0.5939064115225853 0
314 -0.5593207208740273 -0.1497257824836121 0
315 -0.9026185891458676 -0.755267572218004 0
316 -0.9026185891458803 0.755267572217257 0
317 -0.7148375610956611 0.2242437941003061 0
318 -0.8758206507518324 0.2379126972070163 0
319 -0.8762203975897046 -0.2361507545833441 0
320 -0.6154468969213728 0.06488315675749105 0
321 -0.5249102006632791 0.01011605355388404 0
322 -0.8580709659408617 -0.4081432131960124 0
323 -0.8580716813168248 0.4081418552895398 0
324 -0.8366999492088144 -0.02522019145655664 0
325 -0.4505494898551933 0.0271970823460128 0
326 -0.442723661324454 -0.07970370061909973 0
327 -0.4318762373741829 -0.193650015159849 0
328 -0.3880160540270989 0.2099348250727621 0
329 -0.897081826468753 0.572490284368103 0
330 -0.8970811217311309 -0.5724915721480005 0
331 -0.8256139559459625 0.6649200983836391 0
332 -0.8256133299319458 -0.6649209186307137 0
333 -0.6818333612765686 0.506045467518877 0
334 -0.6818262059436568 -0.5060515968758131 0
335 -0.4581082427320047 0.2938472324060137 0
336 -0.4582026164847243 -0.293701901592171 0
337 -0.9262639327481035 -0.6614611880599238 0
338 -0.9262642372563111 0.661460627090266 0
339 -0.9019420572927159 0.1410964679283612 0
340 -0.8782008031000373 -0.1321758829028583 0
341 -0.8051328868543925 -0.4977376425935814 0
342 -0.8051387978319413 0.4977288882423986 0
343 -0.6313182412378376 -0.3994840667363617 0
344 -0.6251964580156494 0.3868132770100946 0
345 -0.6582991488362031 -0.09935515687816604 0
346 -0.5747856827258701 0.4463100362763542 0
347 -0.5776349954389604 -0.4464983986013365 0
348 -0.7139800282397878 0.001208483735983597 0
349 -0.6974333623143539 0.3198734828854716 0
350 -0.7940862130756214 0.2773746664176728 0
351 -0.7891614120642461 -0.2917759255978346 0
352 -0.6085487305328278 -0.020670147895316 0
353 -0.7870475003619364 -0.3813791804171598 0
354 -0.7907953107901718 0.375424076950812 0
355 -0.9250721122574465 0.3638433062100696 0
356 -0.9250719966324366 -0.3638435718826749 0
357 -0.7177627972928267 -0.4242303255902079 0
358 -0.7192720377857409 0.4164274872962008 0
359 -0.7144542207390483 0.1239287100637602 0
360 -0.8633140985009856 0.3250620499957361 0
361 -0.8578132024321785 -0.3247576589585451 0
362 -0.9372553936570935 -0.846153506962863 0
363 -0.9372553936570988 0.8461535069623977 0
364 -0.5832838263208342 0.2945459343902728 0
365 -0.9152138746781802 0.4629269619050297 0
366 -0.9152133460243672 -0.4629280686851621 0
367 -0.6129062080201712 0.1798036109023846 0
368 -0.5925137247140322 -0.3022014885718068 0
369 -0.9438919804466673 -0.0362890953372156 0
370 -0.9087833287146808 0.03962051472512294 0
371 -0.7942689266206192 -0.2242202463079854 0
372 -0.8015608024335826 0.1807531546346837 0
373 -0.5277656311625916 0.3741803532030068 0
374 -0.5300917176658551 -0.3740042827923972 0
375 -0.9320126659231054 -0.2879512365212658 0
376 -0.9330247088687863 0.288249812182408 0
377 -0.6302171229219401 -0.2032278378764924 0
378 -0.4215530720495703 0.1090560289009981 0
379 -0.4937834356799333 -0.1514155848289104 0
380 -0.8185511360004638 0.5855743629129094 0
381 -0.8185488395366218 -0.5855775822672625 0
382 -0.5395300499429952 -0.07819374328985654 0
383 -0.5151414135320072 0.1111236426116529 0
384 -0.4973240170872389 0.2109821469397727 0
385 -0.5100757496576117 -0.2215759368632716 0
386 -0.6552882287384746 0.2530186161153148 0
387 -0.6988713647769019 -0.2560345558322988 0
388 -0.7035789607924426 -0.347665103818382 0
389 -0.7444779745075311 -0.1719116121842388 0
390 -0.769589434592242 -0.08549042261780597 0
391 -0.8131199522662366 0.0775606866133491 0
392 0.2879133955939826 -0.6862941107120492 0
393 -0.5545488949065314 -0.7873586958348298 0
394 0.5704320926594518 -0.8049627087440031 0
395 0.685941733927999 -0.911810042882598 0
396 -0.6296588550612127 -0.866200248867868 0
397 -0.3106434410327905 -0.4115693268102409 0
398 0.2544064565960973 -0.4682208392406504 0
399 0.2384106050295287 -0.5829637065460773 0
400 0.1685827117262149 -0.5089719958479981 0
401 -0.1182341246061678 -0.4769249055176293 0
402 -0.2004273516123126 -0.8142391808852134 0
403 -0.06559274900348137 -0.5620099090539896 0
404 -0.2728038241003568 -0.8841392844089596 0
405 -0.235751916168553 -0.4909306940461409 0
406 -0.4535776359149239 -0.5265035323453632 0
407 0.4709061260707686 -0.5911016522995913 0
408 0.4423406047994256 -0.9217826738894261 0
409 -0.3836794824755427 -0.9062430681624248 0
410 0.08264233479605573 -0.8176825151724173 0
411 0.6070061753246409 -0.7001728358490892 0
412 -0.59608739903916 -0.6914668481920254 0
413 0.3564695786652598 -0.5469100243090432 0
414 0.1816634861414067 -0.6792122500688482 0
415 -0.5558880391572919 -0.9119797282213151 0
416 0.5342283731206716 -0.9099487017106351 0
417 -0.1925084418663632 -0.3953046941189013 0
418 0.6780510569309971 -0.8018841908271314 0
419 -0.6786569562914302 -0.790037465047978 0
420 0.2969854457422784 -0.3731771055517609 0
421 0.3810236395623606 -0.4518644162891256 0
422 -0.02603973248896903 -0.743490745289646 0
423 0.1740300048929676 -0.8358300808336105 0
424 0.1475267832421485 -0.755719880184755 0
425 0.07449246467987868 -0.4289224025527405 0
426 -0.09711238828704412 -0.831996629527571 0
427 -0.1321452200901761 -0.7452459136389263 0
428 0.139250795370459 -0.6015592947130759 0
429 -0.2549834388628351 -0.764861557138821 0
430 0.3120100098458561 -0.7844595595194392 0
431 0.2352155786102416 -0.7707840696507473 0
432 -0.3723940831891955 -0.7867241341751623 0
433 -0.3512760038636213 -0.5219791701922383 0
434 -0.4062485158966731 -0.6298805219436673 0
435 0.2160078850499171 -0.9198893692181975 0
436 -0.4796785424562242 -0.7249263019853753 0
437 -0.8294549755572919 -0.9164979684272251 0
438 -0.3230806804800933 -0.6969713983460757 0
439 -0.5238936983330506 -0.615570207712455 0
440 -0.01331049126245432 -0.4868587971347449 0
441 0.04368613075884296 -0.9170607076024107 0
442 0.3865734471391751 -0.6458739342771206 0
443 0.3868645893117891 -0.7528186656093816 0
444 0.1792675037597657 -0.3933198309569185 0
445 0.3775822719551519 -0.8505644871620767 0
446 0.5615735489143687 -0.6282795912372539 0
447 0.4720155336688026 -0.8249871505622937 0
448 0.07674879622948835 -0.6862096679305113 0
449 -0.2083723019480473 -0.6685202104179438 0
450 -0.4686864037302046 -0.8424829766937781 0
451 -0.4078832123613781 -0.4541587065289593 0
452 -0.104331458593582 -0.6528831071924488 0
453 0.4995076477028296 -0.7069012419978788 0
454 -0.2706200452908917 -0.317352871830951 0
455 -0.05560879092776017 -0.9209103797451961 0
456 -0.1623833907936225 -0.5772165606146333 0
457 -0.156299252065001 -0.9088593045179223 0
458 0.2816366171070538 -0.8710153005733258 0
459 -0.4626888474013192 -0.9306069966200684 0
460 0.1314045578284471 -0.9149646680283418 0
461 -0.283330890976052 -0.5993995031232283 0
462 -0.7117166441644831 -0.8944725372004513 0
463 0.3206297737879877 -0.6150434286579366 0
464 -0.07263010202360015 -0.4087264268263184 0
465 0.3616738575854033 -0.928949810744499 0
466 0.4528624265446604 -0.5065455629561255 0
467 -0.008689685569396054 -0.8473709035722748 0
468 -0.3976537911818433 -0.710478465075428 0
469 -0.770461372762163 -0.8402071809498064 0
470 0.03406926584598097 -0.5837975635380463 0
471 -0.6413777324768539 -0.9350629373690291 0
472 0.7559981462148612 -0.8524482893401191 0
473 0.7789727914137163 -0.9252544533826613 0
474 0.8554298354567824 -0.938109189929782 0
475 0.6185559930952103 -0.8870731140086831 0
476 -0.01829909936860272 -0.6465513499374602 0
477 0.08377649805016989 -0.5234179018188655 0
478 -0.003290478547902154 -0.4175137449395115 0
$EndNodes
$Elements
956
1 1 2 5 1 1 9
2 1 2 5 1 9 10
3 1 2 5 1 10 11
4 1 2 5 1 11 2
5 1 2 5 2 2 12
6 1 2 5 2 12 13
7 1 2 5 2 13 14
8 1 2 5 2 14 15
9 1 2 5 2 15 16
10 1 2 5 2 16 3
11 1 2 5 3 3 17
12 1 2 5 3 17 18
13 1 2 5 3 18 19
14 1 2 5 3 19 4
15 1 2 5 4 4 20
16 1 2 5 4 20 21
17 1 2 5 4 21 22
18 1 2 5 4 22 23
19 1 2 5 4 23 24
20 1 2 5 4 24 1
21 1 2 2 5 5 25
22 1 2 2 5 25 26
23 1 2 2 5 26 27
24 1 2 2 5 27 28
25 1 2 2 5 28 29
26 1 2 2 5 29 30
27 1 2 2 5 30 31
28 1 2 2 5 31 32
29 1 2 2 5 32 33
30 1 2 2 5 33 34
31 1 2 2 5 34 35
32 1 2 2 5 35 36
33 1 2 2 5 36 37
34 1 2 2 5 37 38
35 1 2 2 5 38 39
36 1 2 2 5 39 40
37 1 2 2 5 40 41
38 1 2 2 5 41 42
39 1 2 2 5 42 43
40 1 2 2 5 43 8
41 1 2 3 6 8 44
42 1 2 3 6 44 45
43 1 2 3 6 45 46
44 1 2 3 6 46 47
45 1 2 3 6 47 48
46 1 2 3 6 48 49
47 1 2 3 6 49 50
48 1 2 3 6 50 51
49 1 2 3 6 51 52
50 1 2 3 6 52 53
51 1 2 3 6 53 54
52 1 2 3 6 54 55
53 1 2 3 6 55 56
54 1 2 3 6 56 57
55 1 2 3 6 57 58
56 1 2 3 6 58 59
57 1 2 3 6 59 60
58 1 2 3 6 60 61
59 1 2 3 6 61 62
60 1 2 3 6 62 7
61 1 2 1 7 7 63
62 1 2 1 7 63 64
63 1 2 1 7 64 65
64 1 2 1 7 65 66
65 1 2 1 7 66 67
66 1 2 1 7 67 68
67 1 2 1 7 68 69
68 1 2 1 7 69 70
69 1 2 1 7 70 71
70 1 2 1 7 71 72
71 1 2 1 7 72 73
72 1 2 1 7 73 74
73 1 2 1 7 74 75
74 1 2 1 7 75 76
75 1 2 1 7 76 77
76 1 2 1 7 77 78
77 1 2 1 7 78 79
78 1 2 1 7 79 80
79 1 2 1 7 80 81
80 1 2 1 7 81 6
81 1 2 4 8 6 82
82 1 2 4 8 82 83
83 1 2 4 8 83 84
84 1 2 4 8 84 85
85 1 2 4 8 85 86
86 1 2 4 8 86 87
87 1 2 4 8 87 88
88 1 2 4 8 88 89
89 1 2 4 8 89 90
90 1 2 4 8 90 91
91 1 2 4 8 91 92
92 1 2 4 8 92 93
93 1 2 4 8 93 94
94 1 2 4 8 94 95
95 1 2 4 8 95 96
96 1 2 4 8 96 97
97 1 2 4 8 97 98
98 1 2 4 8 98 99
99 1 2 4 8 99 100
100 1 2 4 8 100 5
101 2 2 6 14 136 63 7
102 2 2 6 14 109 6 81
103 2 2 6 14 134 140 135
104 2 2 6 14 141 107 108
105 2 2 6 14 64 140 65
106 2 2 6 14 141 80 79
107 2 2 6 14 10 151 9
108 2 2 6 14 77 154 78
109 2 2 6 14 155 67 66
110 2 2 6 14 65 162 66
111 2 2 6 14 162 65 140
112 2 2 6 14 163 79 78
113 2 2 6 14 79 163 141
114 2 2 6 14 162 155 66
115 2 2 6 14 154 163 78
116 2 2 6 14 150 151 10
117 2 2 6 14 150 146 151
118 2 2 6 14 157 155 162
119 2 2 6 14 154 156 163
120 2 2 6 14 159 166 137
121 2 2 6 14 167 158 138
122 2 2 6 14 104 171 103
123 2 2 6 14 172 131 130
124 2 2 6 14 175 142 174
125 2 2 6 14 145 177 146
126 2 2 6 14 75 180 76
127 2 2 6 14 181 69 68
128 2 2 6 14 185 148 180
129 2 2 6 14 147 186 181
130 2 2 6 14 187 135 140
131 2 2 6 14 135 187 136
132 2 2 6 14 64 187 140
133 2 2 6 14 108 188 141
134 2 2 6 14 188 108 109
135 2 2 6 14 188 80 141
136 2 2 6 14 145 192 184
137 2 2 6 14 71 194 72
138 2 2 6 14 149 194 165
139 2 2 6 14 194 71 165
140 2 2 6 14 195 73 72
141 2 2 6 14 73 195 164
142 2 2 6 14 144 196 165
143 2 2 6 14 197 143 164
144 2 2 6 14 69 200 70
145 2 2 6 14 200 69 181
146 2 2 6 14 201 75 74
147 2 2 6 14 75 201 180
148 2 2 6 14 194 195 72
149 2 2 6 14 194 149 195
150 2 2 6 14 199 130 129
151 2 2 6 14 103 198 102
152 2 2 6 14 63 187 64
153 2 2 6 14 63 136 187
154 2 2 6 14 188 81 80
155 2 2 6 14 109 81 188
156 2 2 6 14 166 191 155
157 2 2 6 14 190 167 154
158 2 2 6 14 169 174 189
159 2 2 6 14 175 197 142
160 2 2 6 14 185 179 148
161 2 2 6 14 178 186 147
162 2 2 6 14 185 201 143
163 2 2 6 14 185 180 201
164 2 2 6 14 200 186 144
165 2 2 6 14 181 186 200
166 2 2 6 14 133 137 157
167 2 2 6 14 137 133 132
168 2 2 6 14 133 157 134
169 2 2 6 14 138 106 156
170 2 2 6 14 106 138 105
171 2 2 6 14 156 106 107
172 2 2 6 14 67 191 68
173 2 2 6 14 191 67 155
174 2 2 6 14 191 147 181
175 2 2 6 14 191 181 68
176 2 2 6 14 190 77 76
177 2 2 6 14 77 190 154
178 2 2 6 14 148 190 180
179 2 2 6 14 180 190 76
180 2 2 6 14 199 129 161
181 2 2 6 14 102 198 160
182 2 2 6 14 159 132 131
183 2 2 6 14 132 159 137
184 2 2 6 14 105 158 104
185 2 2 6 14 158 105 138
186 2 2 6 14 157 140 134
187 2 2 6 14 140 157 162
188 2 2 6 14 141 156 107
189 2 2 6 14 156 141 163
190 2 2 6 14 189 160 198
191 2 2 6 14 161 193 199
192 2 2 6 14 178 147 166
193 2 2 6 14 147 191 166
194 2 2 6 14 159 182 166
195 2 2 6 14 178 166 182
196 2 2 6 14 148 179 167
197 2 2 6 14 190 148 167
198 2 2 6 14 183 158 167
199 2 2 6 14 167 179 183
200 2 2 6 14 182 159 168
201 2 2 6 14 158 183 169
202 2 2 6 14 128 161 129
203 2 2 6 14 128 152 161
204 2 2 6 14 160 101 102
205 2 2 6 14 153 101 160
206 2 2 6 14 172 159 131
207 2 2 6 14 168 159 172
208 2 2 6 14 158 171 104
209 2 2 6 14 158 169 171
210 2 2 6 14 156 205 138
211 2 2 6 14 167 205 154
212 2 2 6 14 205 167 138
213 2 2 6 14 205 156 154
214 2 2 6 14 206 157 137
215 2 2 6 14 206 166 155
216 2 2 6 14 166 206 137
217 2 2 6 14 157 206 155
218 2 2 6 14 146 207 151
219 2 2 6 14 208 146 150
220 2 2 6 14 146 208 145
221 2 2 6 14 153 209 203
222 2 2 6 14 209 153 160
223 2 2 6 14 210 152 204
224 2 2 6 14 152 210 161
225 2 2 6 14 139 210 204
226 2 2 6 14 150 203 208
227 2 2 6 14 204 207 139
228 2 2 6 14 204 151 207
229 2 2 6 14 146 177 207
230 2 2 6 14 171 198 103
231 2 2 6 14 189 198 169
232 2 2 6 14 198 171 169
233 2 2 6 14 199 172 130
234 2 2 6 14 199 193 168
235 2 2 6 14 172 199 168
236 2 2 6 14 185 143 175
237 2 2 6 14 143 197 175
238 2 2 6 14 175 179 185
239 2 2 6 14 74 73 164
240 2 2 6 14 143 74 164
241 2 2 6 14 74 143 201
242 2 2 6 14 71 70 165
243 2 2 6 14 70 144 165
244 2 2 6 14 144 70 200
245 2 2 6 14 144 186 176
246 2 2 6 14 196 144 176
247 2 2 6 14 178 176 186
248 2 2 6 14 142 184 192
249 2 2 6 14 169 183 174
250 2 2 6 14 174 179 175
251 2 2 6 14 183 179 174
252 2 2 6 14 189 209 160
253 2 2 6 14 192 209 189
254 2 2 6 14 192 145 208
255 2 2 6 14 208 209 192
256 2 2 6 14 209 208 203
257 2 2 6 14 210 139 202
258 2 2 6 14 193 210 202
259 2 2 6 14 210 193 161
260 2 2 6 14 211 174 142
261 2 2 6 14 211 192 189
262 2 2 6 14 192 211 142
263 2 2 6 14 174 211 189
264 2 2 6 14 212 193 202
265 2 2 6 14 196 176 212
266 2 2 6 14 212 213 193
267 2 2 6 14 213 168 193
268 2 2 6 14 170 214 202
269 2 2 6 14 214 212 202
270 2 2 6 14 182 168 213
271 2 2 6 14 178 213 176
272 2 2 6 14 176 213 212
273 2 2 6 14 178 182 213
274 2 2 6 14 214 196 212
275 2 2 6 14 214 165 196
276 2 2 6 14 215 149 165
277 2 2 6 14 214 215 165
278 2 2 6 14 149 215 173
279 2 2 6 14 173 216 149
280 2 2 6 14 215 170 173
281 2 2 6 14 214 170 215
282 2 2 6 14 177 145 173
283 2 2 6 14 184 173 145
284 2 2 6 14 173 184 216
285 2 2 6 14 170 202 139
286 2 2 6 14 139 207 170
287 2 2 6 14 207 177 170
288 2 2 6 14 170 177 173
289 2 2 6 14 149 216 195
290 2 2 6 14 216 164 195
291 2 2 6 14 184 142 197
292 2 2 6 14 164 216 197
293 2 2 6 14 197 216 184
294 2 2 6 14 151 152 9
295 2 2 6 14 151 204 152
296 2 2 6 14 2 153 11
297 2 2 6 14 101 153 2
298 2 2 6 14 153 203 11
299 2 2 6 14 203 10 11
300 2 2 6 14 150 10 203
301 2 2 6 14 9 128 1
302 2 2 6 14 9 152 128
303 2 2 6 16 8 127 44
304 2 2 6 16 62 136 7
305 2 2 6 16 120 221 121
306 2 2 6 16 222 129 130
307 2 2 6 16 21 243 20
308 2 2 6 16 226 243 232
309 2 2 6 16 244 23 24
310 2 2 6 16 244 225 233
311 2 2 6 16 45 245 46
312 2 2 6 16 224 246 223
313 2 2 6 16 125 124 246
314 2 2 6 16 224 125 246
315 2 2 6 16 133 134 247
316 2 2 6 16 246 220 223
317 2 2 6 16 220 246 238
318 2 2 6 16 247 219 237
319 2 2 6 16 242 59 58
320 2 2 6 16 252 231 251
321 2 2 6 16 230 253 250
322 2 2 6 16 230 254 248
323 2 2 6 16 254 230 250
324 2 2 6 16 255 231 249
325 2 2 6 16 231 255 251
326 2 2 6 16 257 22 23
327 2 2 6 16 257 229 256
328 2 2 6 16 22 258 21
329 2 2 6 16 228 258 256
330 2 2 6 16 259 218 239
331 2 2 6 16 218 259 251
332 2 2 6 16 217 260 240
333 2 2 6 16 260 217 250
334 2 2 6 16 261 23 244
335 2 2 6 16 261 229 257
336 2 2 6 16 23 261 257
337 2 2 6 16 228 262 232
338 2 2 6 16 21 263 243
339 2 2 6 16 228 263 258
340 2 2 6 16 263 21 258
341 2 2 6 16 264 229 233
342 2 2 6 16 265 234 253
343 2 2 6 16 267 237 219
344 2 2 6 16 238 268 220
345 2 2 6 16 219 269 267
346 2 2 6 16 234 270 268
347 2 2 6 16 270 234 265
348 2 2 6 16 270 220 268
349 2 2 6 16 271 135 136
350 2 2 6 16 273 231 252
351 2 2 6 16 230 274 253
352 2 2 6 16 276 234 268
353 2 2 6 16 277 228 256
354 2 2 6 16 229 278 256
355 2 2 6 16 56 279 57
356 2 2 6 16 280 50 49
357 2 2 6 16 238 281 268
358 2 2 6 16 282 237 267
359 2 2 6 16 225 283 233
360 2 2 6 16 239 283 222
361 2 2 6 16 283 225 222
362 2 2 6 16 284 226 232
363 2 2 6 16 284 240 221
364 2 2 6 16 226 284 221
365 2 2 6 16 287 218 251
366 2 2 6 16 217 288 250
367 2 2 6 16 221 289 121
368 2 2 6 16 289 221 240
369 2 2 6 16 290 222 130
370 2 2 6 16 222 290 239
371 2 2 6 16 291 217 240
372 2 2 6 16 291 232 262
373 2 2 6 16 217 291 262
374 2 2 6 16 218 292 239
375 2 2 6 16 233 292 264
376 2 2 6 16 292 218 264
377 2 2 6 16 132 282 131
378 2 2 6 16 132 237 282
379 2 2 6 16 281 123 122
380 2 2 6 16 238 123 281
381 2 2 6 16 283 292 233
382 2 2 6 16 283 239 292
383 2 2 6 16 291 284 232
384 2 2 6 16 240 284 291
385 2 2 6 16 232 263 228
386 2 2 6 16 232 243 263
387 2 2 6 16 261 233 229
388 2 2 6 16 244 233 261
389 2 2 6 16 260 253 234
390 2 2 6 16 250 253 260
391 2 2 6 16 254 288 236
392 2 2 6 16 254 250 288
393 2 2 6 16 252 251 259
394 2 2 6 16 287 255 235
395 2 2 6 16 251 255 287
396 2 2 6 16 262 288 217
397 2 2 6 16 252 266 273
398 2 2 6 16 265 253 274
399 2 2 6 16 287 264 218
400 2 2 6 16 257 258 22
401 2 2 6 16 257 256 258
402 2 2 6 16 277 278 227
403 2 2 6 16 277 256 278
404 2 2 6 16 270 286 220
405 2 2 6 16 270 265 286
406 2 2 6 16 285 269 219
407 2 2 6 16 266 269 285
408 2 2 6 16 267 275 282
409 2 2 6 16 276 268 281
410 2 2 6 16 120 119 226
411 2 2 6 16 221 120 226
412 2 2 6 16 128 129 225
413 2 2 6 16 129 222 225
414 2 2 6 16 62 61 271
415 2 2 6 16 136 62 271
416 2 2 6 16 262 228 277
417 2 2 6 16 236 277 227
418 2 2 6 16 236 288 277
419 2 2 6 16 262 277 288
420 2 2 6 16 229 264 278
421 2 2 6 16 278 235 227
422 2 2 6 16 287 235 278
423 2 2 6 16 278 264 287
424 2 2 6 16 46 293 47
425 2 2 6 16 293 46 245
426 2 2 6 16 294 225 244
427 2 2 6 16 225 294 128
428 2 2 6 16 24 294 244
429 2 2 6 16 226 295 243
430 2 2 6 16 295 226 119
431 2 2 6 16 295 20 243
432 2 2 6 16 58 298 242
433 2 2 6 16 298 285 242
434 2 2 6 16 299 280 274
435 2 2 6 16 280 299 50
436 2 2 6 16 279 300 273
437 2 2 6 16 300 279 56
438 2 2 6 16 295 4 20
439 2 2 6 16 119 4 295
440 2 2 6 16 1 294 24
441 2 2 6 16 1 128 294
442 2 2 6 16 293 224 223
443 2 2 6 16 245 224 293
444 2 2 6 16 299 51 50
445 2 2 6 16 274 230 299
446 2 2 6 16 55 300 56
447 2 2 6 16 231 273 300
448 2 2 6 16 51 301 52
449 2 2 6 16 296 55 54
450 2 2 6 16 298 58 57
451 2 2 6 16 279 298 57
452 2 2 6 16 131 290 130
453 2 2 6 16 282 290 131
454 2 2 6 16 282 275 290
455 2 2 6 16 289 122 121
456 2 2 6 16 289 281 122
457 2 2 6 16 276 281 289
458 2 2 6 16 235 272 227
459 2 2 6 16 272 236 227
460 2 2 6 16 239 275 259
461 2 2 6 16 275 239 290
462 2 2 6 16 234 276 260
463 2 2 6 16 276 240 260
464 2 2 6 16 240 276 289
465 2 2 6 16 238 124 123
466 2 2 6 16 238 246 124
467 2 2 6 16 245 126 224
468 2 2 6 16 126 125 224
469 2 2 6 16 133 237 132
470 2 2 6 16 247 237 133
471 2 2 6 16 219 247 242
472 2 2 6 16 242 285 219
473 2 2 6 16 220 286 297
474 2 2 6 16 302 61 60
475 2 2 6 16 248 303 241
476 2 2 6 16 303 248 254
477 2 2 6 16 304 249 241
478 2 2 6 16 249 304 255
479 2 2 6 16 305 293 223
480 2 2 6 16 293 305 47
481 2 2 6 16 306 280 49
482 2 2 6 16 303 304 241
483 2 2 6 16 303 272 304
484 2 2 6 16 236 303 254
485 2 2 6 16 236 272 303
486 2 2 6 16 304 235 255
487 2 2 6 16 272 235 304
488 2 2 6 16 48 306 49
489 2 2 6 16 48 297 306
490 2 2 6 16 297 286 306
491 2 2 6 16 305 48 47
492 2 2 6 16 297 48 305
493 2 2 6 16 220 305 223
494 2 2 6 16 220 297 305
495 2 2 6 16 306 286 265
496 2 2 6 16 265 274 306
497 2 2 6 16 274 280 306
498 2 2 6 16 55 296 300
499 2 2 6 16 231 296 249
500 2 2 6 16 231 300 296
501 2 2 6 16 301 51 299
502 2 2 6 16 301 230 248
503 2 2 6 16 299 230 301
504 2 2 6 16 269 266 252
505 2 2 6 16 252 259 269
506 2 2 6 16 275 269 259
507 2 2 6 16 269 275 267
508 2 2 6 16 307 302 247
509 2 2 6 16 134 307 247
510 2 2 6 16 308 54 53
511 2 2 6 16 54 308 296
512 2 2 6 16 52 309 53
513 2 2 6 16 309 52 301
514 2 2 6 16 310 242 247
515 2 2 6 16 302 310 247
516 2 2 6 16 135 307 134
517 2 2 6 16 309 308 53
518 2 2 6 16 241 308 309
519 2 2 6 16 309 248 241
520 2 2 6 16 301 248 309
521 2 2 6 16 249 308 241
522 2 2 6 16 249 296 308
523 2 2 6 16 310 59 242
524 2 2 6 16 279 273 266
525 2 2 6 16 279 266 298
526 2 2 6 16 298 266 285
527 2 2 6 16 59 310 60
528 2 2 6 16 310 302 60
529 2 2 6 16 135 271 307
530 2 2 6 16 271 61 302
531 2 2 6 16 302 307 271
532 2 2 6 16 311 127 126
533 2 2 6 16 245 311 126
534 2 2 6 16 127 311 44
535 2 2 6 16 311 45 44
536 2 2 6 16 245 45 311
537 2 2 6 18 118 25 5
538 2 2 6 18 127 8 43
539 2 2 6 18 315 117 116
540 2 2 6 18 125 126 316
541 2 2 6 18 315 27 26
542 2 2 6 18 42 41 316
543 2 2 6 18 326 17 18
544 2 2 6 18 329 40 39
545 2 2 6 18 29 28 330
546 2 2 6 18 337 28 27
547 2 2 6 18 27 315 337
548 2 2 6 18 41 40 338
549 2 2 6 18 338 316 41
550 2 2 6 18 330 28 337
551 2 2 6 18 338 40 329
552 2 2 6 18 326 18 325
553 2 2 6 18 321 326 325
554 2 2 6 18 330 337 332
555 2 2 6 18 331 338 329
556 2 2 6 18 341 312 334
557 2 2 6 18 333 313 342
558 2 2 6 18 346 121 122
559 2 2 6 18 113 112 347
560 2 2 6 18 317 349 350
561 2 2 6 18 352 321 320
562 2 2 6 18 355 38 37
563 2 2 6 18 31 30 356
564 2 2 6 18 323 355 360
565 2 2 6 18 361 356 322
566 2 2 6 18 117 315 362
567 2 2 6 18 362 118 117
568 2 2 6 18 362 315 26
569 2 2 6 18 363 316 126
570 2 2 6 18 126 127 363
571 2 2 6 18 42 316 363
572 2 2 6 18 367 359 320
573 2 2 6 18 369 34 33
574 2 2 6 18 369 340 324
575 2 2 6 18 33 340 369
576 2 2 6 18 35 34 370
577 2 2 6 18 370 339 35
578 2 2 6 18 371 340 319
579 2 2 6 18 318 339 372
580 2 2 6 18 375 32 31
581 2 2 6 18 31 356 375
582 2 2 6 18 37 36 376
583 2 2 6 18 376 355 37
584 2 2 6 18 370 34 369
585 2 2 6 18 324 370 369
586 2 2 6 18 112 111 374
587 2 2 6 18 373 120 121
588 2 2 6 18 362 26 25
589 2 2 6 18 118 362 25
590 2 2 6 18 43 42 363
591 2 2 6 18 43 363 127
592 2 2 6 18 366 330 341
593 2 2 6 18 342 329 365
594 2 2 6 18 349 364 344
595 2 2 6 18 372 317 350
596 2 2 6 18 354 323 360
597 2 2 6 18 361 322 353
598 2 2 6 18 376 318 360
599 2 2 6 18 355 376 360
600 2 2 6 18 361 319 375
601 2 2 6 18 361 375 356
602 2 2 6 18 312 332 115
603 2 2 6 18 115 114 312
604 2 2 6 18 332 116 115
605 2 2 6 18 124 331 313
606 2 2 6 18 313 123 124
607 2 2 6 18 124 125 331
608 2 2 6 18 366 30 29
609 2 2 6 18 29 330 366
610 2 2 6 18 322 356 366
611 2 2 6 18 356 30 366
612 2 2 6 18 39 38 365
613 2 2 6 18 365 329 39
614 2 2 6 18 365 355 323
615 2 2 6 18 365 38 355
616 2 2 6 18 111 336 374
617 2 2 6 18 373 335 120
618 2 2 6 18 114 113 334
619 2 2 6 18 334 312 114
620 2 2 6 18 333 122 123
621 2 2 6 18 123 313 333
622 2 2 6 18 315 116 332
623 2 2 6 18 332 337 315
624 2 2 6 18 331 125 316
625 2 2 6 18 316 338 331
626 2 2 6 18 335 373 364
627 2 2 6 18 368 374 336
628 2 2 6 18 322 341 353
629 2 2 6 18 366 341 322
630 2 2 6 18 357 341 334
631 2 2 6 18 341 357 353
632 2 2 6 18 354 342 323
633 2 2 6 18 323 342 365
634 2 2 6 18 333 342 358
635 2 2 6 18 354 358 342
636 2 2 6 18 334 343 357
637 2 2 6 18 358 344 333
638 2 2 6 18 336 111 110
639 2 2 6 18 327 336 110
640 2 2 6 18 119 120 335
641 2 2 6 18 119 335 328
642 2 2 6 18 334 113 347
643 2 2 6 18 334 347 343
644 2 2 6 18 346 122 333
645 2 2 6 18 344 346 333
646 2 2 6 18 380 313 331
647 2 2 6 18 380 329 342
648 2 2 6 18 342 313 380
649 2 2 6 18 331 329 380
650 2 2 6 18 332 312 381
651 2 2 6 18 341 330 381
652 2 2 6 18 381 312 341
653 2 2 6 18 381 330 332
654 2 2 6 18 382 326 321
655 2 2 6 18 321 325 383
656 2 2 6 18 383 320 321
657 2 2 6 18 384 378 328
658 2 2 6 18 328 335 384
659 2 2 6 18 327 379 385
660 2 2 6 18 385 336 327
661 2 2 6 18 385 379 314
662 2 2 6 18 378 383 325
663 2 2 6 18 382 314 379
664 2 2 6 18 326 382 379
665 2 2 6 18 352 382 321
666 2 2 6 18 373 121 346
667 2 2 6 18 373 344 364
668 2 2 6 18 346 344 373
669 2 2 6 18 347 112 374
670 2 2 6 18 368 343 374
671 2 2 6 18 374 343 347
672 2 2 6 18 318 350 360
673 2 2 6 18 372 350 318
674 2 2 6 18 354 360 350
675 2 2 6 18 35 339 36
676 2 2 6 18 36 339 318
677 2 2 6 18 318 376 36
678 2 2 6 18 32 340 33
679 2 2 6 18 319 340 32
680 2 2 6 18 32 375 319
681 2 2 6 18 361 351 319
682 2 2 6 18 319 351 371
683 2 2 6 18 351 361 353
684 2 2 6 18 359 367 317
685 2 2 6 18 358 349 344
686 2 2 6 18 354 350 349
687 2 2 6 18 354 349 358
688 2 2 6 18 384 335 364
689 2 2 6 18 384 364 367
690 2 2 6 18 320 383 367
691 2 2 6 18 384 367 383
692 2 2 6 18 383 378 384
693 2 2 6 18 314 377 385
694 2 2 6 18 385 377 368
695 2 2 6 18 368 336 385
696 2 2 6 18 349 317 386
697 2 2 6 18 367 364 386
698 2 2 6 18 386 317 367
699 2 2 6 18 386 364 349
700 2 2 6 18 368 377 387
701 2 2 6 18 351 387 371
702 2 2 6 18 388 368 387
703 2 2 6 18 343 368 388
704 2 2 6 18 389 377 345
705 2 2 6 18 387 377 389
706 2 2 6 18 343 388 357
707 2 2 6 18 388 351 353
708 2 2 6 18 388 387 351
709 2 2 6 18 357 388 353
710 2 2 6 18 371 387 389
711 2 2 6 18 340 371 389
712 2 2 6 18 324 340 390
713 2 2 6 18 390 340 389
714 2 2 6 18 390 348 324
715 2 2 6 18 391 324 348
716 2 2 6 18 345 348 390
717 2 2 6 18 345 390 389
718 2 2 6 18 320 348 352
719 2 2 6 18 348 320 359
720 2 2 6 18 359 391 348
721 2 2 6 18 377 314 345
722 2 2 6 18 382 345 314
723 2 2 6 18 352 345 382
724 2 2 6 18 352 348 345
725 2 2 6 18 391 370 324
726 2 2 6 18 339 370 391
727 2 2 6 18 317 372 359
728 2 2 6 18 391 372 339
729 2 2 6 18 391 359 372
730 2 2 6 18 327 17 326
731 2 2 6 18 379 327 326
732 2 2 6 18 328 19 4
733 2 2 6 18 328 4 119
734 2 2 6 18 378 19 328
735 2 2 6 18 18 19 378
736 2 2 6 18 18 378 325
737 2 2 6 18 110 3 17
738 2 2 6 18 327 110 17
739 2 2 6 20 118 5 100
740 2 2 6 20 109 82 6
741 2 2 6 20 392 399 414
742 2 2 6 20 393 396 415
743 2 2 6 20 15 16 417
744 2 2 6 20 397 405 417
745 2 2 6 20 398 421 420
746 2 2 6 20 401 417 405
747 2 2 6 20 400 399 398
748 2 2 6 20 406 112 113
749 2 2 6 20 398 399 413
750 2 2 6 20 413 421 398
751 2 2 6 20 418 411 394
752 2 2 6 20 106 418 107
753 2 2 6 20 116 419 115
754 2 2 6 20 419 396 393
755 2 2 6 20 393 412 419
756 2 2 6 20 106 105 411
757 2 2 6 20 418 106 411
758 2 2 6 20 97 96 415
759 2 2 6 20 416 86 85
760 2 2 6 20 410 423 424
761 2 2 6 20 425 13 14
762 2 2 6 20 402 427 429
763 2 2 6 20 433 405 397
764 2 2 6 20 412 393 436
765 2 2 6 20 117 118 437
766 2 2 6 20 406 113 439
767 2 2 6 20 439 434 406
768 2 2 6 20 444 12 13
769 2 2 6 20 420 12 444
770 2 2 6 20 105 104 446
771 2 2 6 20 446 411 105
772 2 2 6 20 408 416 447
773 2 2 6 20 447 416 394
774 2 2 6 20 448 424 414
775 2 2 6 20 393 415 450
776 2 2 6 20 409 432 450
777 2 2 6 20 451 112 406
778 2 2 6 20 453 394 411
779 2 2 6 20 439 113 114
780 2 2 6 20 412 439 114
781 2 2 6 20 427 402 426
782 2 2 6 20 422 427 426
783 2 2 6 20 431 414 424
784 2 2 6 20 423 431 424
785 2 2 6 20 427 449 429
786 2 2 6 20 443 392 430
787 2 2 6 20 404 402 429
788 2 2 6 20 392 414 431
789 2 2 6 20 392 431 430
790 2 2 6 20 439 412 436
791 2 2 6 20 434 439 436
792 2 2 6 20 89 88 435
793 2 2 6 20 441 91 90
794 2 2 6 20 111 397 110
795 2 2 6 20 99 437 100
796 2 2 6 20 100 437 118
797 2 2 6 20 440 401 403
798 2 2 6 20 432 409 404
799 2 2 6 20 404 429 432
800 2 2 6 20 429 438 432
801 2 2 6 20 416 408 86
802 2 2 6 20 446 407 453
803 2 2 6 20 411 446 453
804 2 2 6 20 428 399 400
805 2 2 6 20 414 399 428
806 2 2 6 20 414 428 448
807 2 2 6 20 407 446 104
808 2 2 6 20 445 408 447
809 2 2 6 20 445 443 430
810 2 2 6 20 443 442 392
811 2 2 6 20 407 413 442
812 2 2 6 20 407 442 453
813 2 2 6 20 442 443 453
814 2 2 6 20 87 86 408
815 2 2 6 20 397 417 454
816 2 2 6 20 454 110 397
817 2 2 6 20 454 417 16
818 2 2 6 20 456 401 405
819 2 2 6 20 402 404 457
820 2 2 6 20 459 415 96
821 2 2 6 20 459 95 409
822 2 2 6 20 96 95 459
823 2 2 6 20 423 410 460
824 2 2 6 20 460 410 441
825 2 2 6 20 399 392 463
826 2 2 6 20 442 413 463
827 2 2 6 20 463 392 442
828 2 2 6 20 463 413 399
829 2 2 6 20 15 417 464
830 2 2 6 20 464 417 401
831 2 2 6 20 454 16 3
832 2 2 6 20 110 454 3
833 2 2 6 20 459 409 450
834 2 2 6 20 415 459 450
835 2 2 6 20 458 435 88
836 2 2 6 20 464 14 15
837 2 2 6 20 464 401 440
838 2 2 6 20 91 441 455
839 2 2 6 20 460 441 90
840 2 2 6 20 460 435 423
841 2 2 6 20 91 455 92
842 2 2 6 20 89 460 90
843 2 2 6 20 435 460 89
844 2 2 6 20 427 422 452
845 2 2 6 20 449 427 452
846 2 2 6 20 101 12 420
847 2 2 6 20 12 101 2
848 2 2 6 20 457 93 92
849 2 2 6 20 457 426 402
850 2 2 6 20 92 455 457
851 2 2 6 20 426 457 455
852 2 2 6 20 13 425 444
853 2 2 6 20 444 425 400
854 2 2 6 20 438 461 434
855 2 2 6 20 438 429 449
856 2 2 6 20 438 449 461
857 2 2 6 20 421 103 102
858 2 2 6 20 412 114 115
859 2 2 6 20 412 115 419
860 2 2 6 20 450 436 393
861 2 2 6 20 111 112 451
862 2 2 6 20 451 397 111
863 2 2 6 20 397 451 433
864 2 2 6 20 400 398 444
865 2 2 6 20 444 398 420
866 2 2 6 20 447 394 453
867 2 2 6 20 443 447 453
868 2 2 6 20 443 445 447
869 2 2 6 20 410 424 448
870 2 2 6 20 448 422 410
871 2 2 6 20 431 423 458
872 2 2 6 20 458 423 435
873 2 2 6 20 458 430 431
874 2 2 6 20 458 445 430
875 2 2 6 20 450 432 436
876 2 2 6 20 88 87 465
877 2 2 6 20 445 458 465
878 2 2 6 20 465 458 88
879 2 2 6 20 103 421 466
880 2 2 6 20 413 407 466
881 2 2 6 20 466 421 413
882 2 2 6 20 467 441 410
883 2 2 6 20 455 441 467
884 2 2 6 20 436 432 468
885 2 2 6 20 438 434 468
886 2 2 6 20 468 432 438
887 2 2 6 20 468 434 436
888 2 2 6 20 104 103 466
889 2 2 6 20 104 466 407
890 2 2 6 20 465 87 408
891 2 2 6 20 445 465 408
892 2 2 6 20 84 395 85
893 2 2 6 20 410 422 467
894 2 2 6 20 426 455 467
895 2 2 6 20 467 422 426
896 2 2 6 20 461 405 433
897 2 2 6 20 406 433 451
898 2 2 6 20 433 406 434
899 2 2 6 20 433 434 461
900 2 2 6 20 456 405 461
901 2 2 6 20 452 456 449
902 2 2 6 20 449 456 461
903 2 2 6 20 456 403 401
904 2 2 6 20 456 452 403
905 2 2 6 20 462 396 419
906 2 2 6 20 462 419 469
907 2 2 6 20 469 419 116
908 2 2 6 20 471 98 97
909 2 2 6 20 97 415 471
910 2 2 6 20 469 116 117
911 2 2 6 20 471 415 396
912 2 2 6 20 462 471 396
913 2 2 6 20 404 409 94
914 2 2 6 20 95 94 409
915 2 2 6 20 437 469 117
916 2 2 6 20 469 437 462
917 2 2 6 20 418 395 472
918 2 2 6 20 472 107 418
919 2 2 6 20 420 421 102
920 2 2 6 20 102 101 420
921 2 2 6 20 98 471 462
922 2 2 6 20 428 470 448
923 2 2 6 20 440 403 470
924 2 2 6 20 93 457 404
925 2 2 6 20 404 94 93
926 2 2 6 20 84 83 473
927 2 2 6 20 473 395 84
928 2 2 6 20 474 83 82
929 2 2 6 20 82 109 474
930 2 2 6 20 475 85 395
931 2 2 6 20 416 85 475
932 2 2 6 20 476 403 452
933 2 2 6 20 470 403 476
934 2 2 6 20 477 428 400
935 2 2 6 20 470 428 477
936 2 2 6 20 473 83 474
937 2 2 6 20 474 109 108
938 2 2 6 20 472 395 473
939 2 2 6 20 477 400 425
940 2 2 6 20 425 440 477
941 2 2 6 20 477 440 470
942 2 2 6 20 394 416 475
943 2 2 6 20 475 418 394
944 2 2 6 20 395 418 475
945 2 2 6 20 476 452 422
946 2 2 6 20 422 448 476
947 2 2 6 20 476 448 470
948 2 2 6 20 108 107 472
949 2 2 6 20 472 473 108
950 2 2 6 20 473 474 108
951 2 2 6 20 478 425 14
952 2 2 6 20 478 464 440
953 2 2 6 20 440 425 478
954 2 2 6 20 14 464 478
955 2 2 6 20 99 98 462
956 2 2 6 20 99 462 437
$EndElements
